{
    "basename": "asr-associate_04-8bcb3df",
    "cmd": "lfortran --show-asr --no-color {infile} -o {outfile}",
    "infile": "tests/../integration_tests/associate_04.f90",
    "infile_hash": "2fe4e19ca1ea6e0258d337d9c68a616a07e255b29ea56531530acd26",
    "outfile": null,
    "outfile_hash": null,
    "stdout": "asr-associate_04-8bcb3df.stdout",
    "stdout_hash": "b45534092c0ba5a844d202cfc228a2342ca77454c87ac769ffaa40c7",
    "stderr": null,
    "stderr_hash": null,
    "returncode": 0
}