{
    "basename": "asr-intrinsics_12-ff7ce44",
    "cmd": "lfortran --show-asr --no-color {infile} -o {outfile}",
    "infile": "tests/../integration_tests/intrinsics_12.f90",
    "infile_hash": "7f3ef938f03d46035bb9c845b8ab1b15ac06b209b8b464f50486baf8",
    "outfile": null,
    "outfile_hash": null,
    "stdout": "asr-intrinsics_12-ff7ce44.stdout",
    "stdout_hash": "1db357e1cb2add173e94bd983013eed4ccdc5cb4610c1b0b5b315501",
    "stderr": null,
    "stderr_hash": null,
    "returncode": 0
}