{
    "basename": "asr-types_02-7a95ae7",
    "cmd": "lfortran --show-asr --no-color {infile} -o {outfile}",
    "infile": "tests/../integration_tests/types_02.f90",
    "infile_hash": "6b9728dd8c74663d697504a17537aef00ed9210bf24fae6e7e0468bc",
    "outfile": null,
    "outfile_hash": null,
    "stdout": "asr-types_02-7a95ae7.stdout",
    "stdout_hash": "11b9119a841b32fbb5e4c0e06d214ab431e5042489945ab96208e7a2",
    "stderr": null,
    "stderr_hash": null,
    "returncode": 0
}