{
    "basename": "asr-arrays_op_5-9ff5901",
    "cmd": "lfortran --show-asr --no-color {infile} -o {outfile}",
    "infile": "tests/../integration_tests/arrays_op_5.f90",
    "infile_hash": "f3c014105f55ed7ec4a86da773076b204ada3cd5c8903ecbf25af3c4",
    "outfile": null,
    "outfile_hash": null,
    "stdout": "asr-arrays_op_5-9ff5901.stdout",
    "stdout_hash": "5cabec81411c73422a2b8d3d6516bda066882512b56f0178da23dedb",
    "stderr": null,
    "stderr_hash": null,
    "returncode": 0
}