{
    "basename": "asr-types_01-a91206c",
    "cmd": "lfortran --show-asr --no-color {infile} -o {outfile}",
    "infile": "tests/../integration_tests/types_01.f90",
    "infile_hash": "551d14053f907f18f3ffcd47309e735206789f8bd754d11187c8fab3",
    "outfile": null,
    "outfile_hash": null,
    "stdout": "asr-types_01-a91206c.stdout",
    "stdout_hash": "121ec452c05b8061c6a4517155b6af224ea88ba0080d238d101d0740",
    "stderr": null,
    "stderr_hash": null,
    "returncode": 0
}