{
    "basename": "asr-const_real_dp-fa55d4d",
    "cmd": "lfortran --show-asr --no-color {infile} -o {outfile}",
    "infile": "tests/../integration_tests/const_real_dp.f90",
    "infile_hash": "636cd3c6b6c703b943b251bba6439b2675cd69fb82cd65a43513e971",
    "outfile": null,
    "outfile_hash": null,
    "stdout": "asr-const_real_dp-fa55d4d.stdout",
    "stdout_hash": "e3588052c6a61df5a510e8c173a31422e3ebc1b8e0038a95a5f87de4",
    "stderr": null,
    "stderr_hash": null,
    "returncode": 0
}