{
    "basename": "asr-arrays_10-2bab681",
    "cmd": "lfortran --show-asr --no-color {infile} -o {outfile}",
    "infile": "tests/../integration_tests/arrays_10.f90",
    "infile_hash": "0146a08c678315b48d4c8b7e901495a28efc46a8c25989fd6ebb887f",
    "outfile": null,
    "outfile_hash": null,
    "stdout": "asr-arrays_10-2bab681.stdout",
    "stdout_hash": "fcd55a24bd4ae988b71e74af7e7fd249318096c6a1b8b8d9525e4b57",
    "stderr": null,
    "stderr_hash": null,
    "returncode": 0
}