{
    "basename": "asr-arrays_06-9c8a08b",
    "cmd": "lfortran --show-asr --no-color {infile} -o {outfile}",
    "infile": "tests/../integration_tests/arrays_06.f90",
    "infile_hash": "a4c39183fd67961c13cfe82b7a1c45556b6d9ca3c31f9aa3e9c8350f",
    "outfile": null,
    "outfile_hash": null,
    "stdout": "asr-arrays_06-9c8a08b.stdout",
    "stdout_hash": "b9f819106452cada928a577d4499f8b67fd428b92e320b4f383187cf",
    "stderr": null,
    "stderr_hash": null,
    "returncode": 0
}