{
    "basename": "asr-arrays_01-5f1c776",
    "cmd": "lfortran --show-asr --no-color {infile} -o {outfile}",
    "infile": "tests/../integration_tests/arrays_01.f90",
    "infile_hash": "f7df4142feb383f836dfa072a60673922e8873b5695f893be8329b89",
    "outfile": null,
    "outfile_hash": null,
    "stdout": "asr-arrays_01-5f1c776.stdout",
    "stdout_hash": "37ed07255e03a801c454f8cb7de544d2879b77ce3df2bf13bf2368ea",
    "stderr": null,
    "stderr_hash": null,
    "returncode": 0
}