{
    "basename": "asr-doloop_02-cc78975",
    "cmd": "lfortran --show-asr --no-color {infile} -o {outfile}",
    "infile": "tests/../integration_tests/doloop_02.f90",
    "infile_hash": "3180c4fce9fa3d7573920ef7e507bc76d0a7c47207414db8393b93ff",
    "outfile": null,
    "outfile_hash": null,
    "stdout": "asr-doloop_02-cc78975.stdout",
    "stdout_hash": "314c3229fb5d596a33f3d553b584c12115589921dc4be38e199b7a9d",
    "stderr": null,
    "stderr_hash": null,
    "returncode": 0
}