{
    "basename": "asr-string4-87bf025",
    "cmd": "lfortran --show-asr --no-color {infile} -o {outfile}",
    "infile": "tests/../integration_tests/string4.f90",
    "infile_hash": "3c4608bd623d30f7a536cd6a115772ac66d2da351a32df9a027a8964",
    "outfile": null,
    "outfile_hash": null,
    "stdout": "asr-string4-87bf025.stdout",
    "stdout_hash": "dac4366fc977a67754285bce044d1e45ad1ecc018989d96ef9e3f2cd",
    "stderr": null,
    "stderr_hash": null,
    "returncode": 0
}