{
    "basename": "asr-allocate_02-3c0d7c8",
    "cmd": "lfortran --show-asr --no-color {infile} -o {outfile}",
    "infile": "tests/../integration_tests/allocate_02.f90",
    "infile_hash": "8990c141e1a8d058f4fdbddb2501648c939fa3bb750fa3458a24f876",
    "outfile": null,
    "outfile_hash": null,
    "stdout": "asr-allocate_02-3c0d7c8.stdout",
    "stdout_hash": "d69470b2d96be22398dba5d710178f001b3b70a2f0dbc1965a969c94",
    "stderr": null,
    "stderr_hash": null,
    "returncode": 0
}