{
    "basename": "asr-arrays_01_real-6cb0873",
    "cmd": "lfortran --show-asr --no-color {infile} -o {outfile}",
    "infile": "tests/../integration_tests/arrays_01_real.f90",
    "infile_hash": "52d4b470c5523650dead5fa570d62db7293b9ecd23758e3cc4ba28c2",
    "outfile": null,
    "outfile_hash": null,
    "stdout": "asr-arrays_01_real-6cb0873.stdout",
    "stdout_hash": "25c99d6c837d9257d68fa980775f4fc458b8e9cf0d1061fa8ae07de0",
    "stderr": null,
    "stderr_hash": null,
    "returncode": 0
}