{
    "basename": "asr-interface_01-9dc98da",
    "cmd": "lfortran --show-asr --no-color {infile} -o {outfile}",
    "infile": "tests/../integration_tests/interface_01.f90",
    "infile_hash": "56828a66265782f7acd20520a5d25ac6246d6d44dfb8fa758507ed63",
    "outfile": null,
    "outfile_hash": null,
    "stdout": "asr-interface_01-9dc98da.stdout",
    "stdout_hash": "997d82d92bb505f0726325244d6a4e9891f8a4344bd70363d719935a",
    "stderr": null,
    "stderr_hash": null,
    "returncode": 0
}