{
    "basename": "asr-complex_dp-ec165b1",
    "cmd": "lfortran --show-asr --no-color {infile} -o {outfile}",
    "infile": "tests/../integration_tests/complex_dp.f90",
    "infile_hash": "2ab8a19155ace703dc52c1f26d2ecea0db08a49637452b31871a40b2",
    "outfile": null,
    "outfile_hash": null,
    "stdout": "asr-complex_dp-ec165b1.stdout",
    "stdout_hash": "7dff22a4b676b3bcc85f71c83b983c5110a798c6fb995552fac1e3cb",
    "stderr": null,
    "stderr_hash": null,
    "returncode": 0
}