{
    "basename": "asr-init_values-19dfa76",
    "cmd": "lfortran --show-asr --no-color {infile} -o {outfile}",
    "infile": "tests/../integration_tests/init_values.f90",
    "infile_hash": "1cafced706fa2754f92f2d460867d6c84638fd10447df12f124fd419",
    "outfile": null,
    "outfile_hash": null,
    "stdout": "asr-init_values-19dfa76.stdout",
    "stdout_hash": "f6db38e786b1a93361a0d0cce5ab10a7edd2da1b8a42ebf4a0fd7040",
    "stderr": null,
    "stderr_hash": null,
    "returncode": 0
}