{
    "basename": "asr-parameter_03-d4df941",
    "cmd": "lfortran --show-asr --no-color {infile} -o {outfile}",
    "infile": "tests/../integration_tests/parameter_03.f90",
    "infile_hash": "5f60b01824232c9c934cf71ae5b7f4f54e51457361dc9fefb28092a5",
    "outfile": null,
    "outfile_hash": null,
    "stdout": "asr-parameter_03-d4df941.stdout",
    "stdout_hash": "9881177490b9ee6ee69e4c9bc3f5cd8394ea6d5bcea5dba26a1e118b",
    "stderr": null,
    "stderr_hash": null,
    "returncode": 0
}