{
    "basename": "asr-logical1-fd6d5c4",
    "cmd": "lfortran --show-asr --no-color {infile} -o {outfile}",
    "infile": "tests/../integration_tests/logical1.f90",
    "infile_hash": "d0f4b064d238380619d6802ebc84c91c684869a8ffb6d4fc807bf2d9",
    "outfile": null,
    "outfile_hash": null,
    "stdout": "asr-logical1-fd6d5c4.stdout",
    "stdout_hash": "7b7c69f7b44506b43c6a3b008b39ff9a4c047044b4d2833483e163a4",
    "stderr": null,
    "stderr_hash": null,
    "returncode": 0
}