{
    "basename": "asr-case_03-e03f722",
    "cmd": "lfortran --show-asr --no-color {infile} -o {outfile}",
    "infile": "tests/../integration_tests/case_03.f90",
    "infile_hash": "4fc1bb48b2136f22bb44b7c69aaa05a43b4ed2e4b8464c433340295d",
    "outfile": null,
    "outfile_hash": null,
    "stdout": "asr-case_03-e03f722.stdout",
    "stdout_hash": "0e2bffa9729d966587d51474b52903aad3ca927a2bb0bf7abc9da352",
    "stderr": null,
    "stderr_hash": null,
    "returncode": 0
}