{
    "basename": "asr-class_01-704dee8",
    "cmd": "lfortran --show-asr --no-color {infile} -o {outfile}",
    "infile": "tests/../integration_tests/class_01.f90",
    "infile_hash": "d56b80167c24a798a3f70abbc77b31570b560e826ce6b96ab9476bab",
    "outfile": null,
    "outfile_hash": null,
    "stdout": "asr-class_01-704dee8.stdout",
    "stdout_hash": "e884a4500a777dec1415d2a70a12d66872f43cd5ffcfd2bcd2f67be1",
    "stderr": null,
    "stderr_hash": null,
    "returncode": 0
}