{
    "basename": "asr-string3-aa1dc1c",
    "cmd": "lfortran --show-asr --no-color {infile} -o {outfile}",
    "infile": "tests/../integration_tests/string3.f90",
    "infile_hash": "90188a84217deb8d16424b3aaf49f0b2a999cad8494cdf536c6d27e1",
    "outfile": null,
    "outfile_hash": null,
    "stdout": "asr-string3-aa1dc1c.stdout",
    "stdout_hash": "f055ee3dc8ee62f9f20ba60e5d07f98d76aba0bfa7615bef76a5aa21",
    "stderr": null,
    "stderr_hash": null,
    "returncode": 0
}