{
    "basename": "asr-program_cmake_01-a9e6179",
    "cmd": "lfortran --show-asr --no-color {infile} -o {outfile}",
    "infile": "tests/../integration_tests/program_cmake_01.f90",
    "infile_hash": "0e854d9b2ed613d6193d78290dc20a45ec66f60ab17e1c0229c3febe",
    "outfile": null,
    "outfile_hash": null,
    "stdout": "asr-program_cmake_01-a9e6179.stdout",
    "stdout_hash": "d705f9b2f24e69fdafaee0df702b91ab128cad5dce961e501c6cf381",
    "stderr": null,
    "stderr_hash": null,
    "returncode": 0
}