{
    "basename": "asr-subroutines_04-a817e0c",
    "cmd": "lfortran --show-asr --no-color {infile} -o {outfile}",
    "infile": "tests/../integration_tests/subroutines_04.f90",
    "infile_hash": "64a0d218db09c2ed45f26712eeca158f8abd11043df4d26101c06498",
    "outfile": null,
    "outfile_hash": null,
    "stdout": "asr-subroutines_04-a817e0c.stdout",
    "stdout_hash": "7e06e4184dbf8a4bd9ace910a815d76b5549affef18ba6ddf1e4ea7d",
    "stderr": null,
    "stderr_hash": null,
    "returncode": 0
}