{
    "basename": "asr-modules_02-74be421",
    "cmd": "lfortran --show-asr --no-color {infile} -o {outfile}",
    "infile": "tests/../integration_tests/modules_02.f90",
    "infile_hash": "887bcd0c13724335791cfd2de3e820c61e06230aa7bfc9ff56b446c1",
    "outfile": null,
    "outfile_hash": null,
    "stdout": "asr-modules_02-74be421.stdout",
    "stdout_hash": "064262d95cc76585c274e1790389130616b0f49a274a01f30a6fdea4",
    "stderr": null,
    "stderr_hash": null,
    "returncode": 0
}