{
    "basename": "asr-types_03-f0b782e",
    "cmd": "lfortran --show-asr --no-color {infile} -o {outfile}",
    "infile": "tests/../integration_tests/types_03.f90",
    "infile_hash": "388683b8609d91d174ceb8c24787c982bf1ea22d342e94d44457b861",
    "outfile": null,
    "outfile_hash": null,
    "stdout": "asr-types_03-f0b782e.stdout",
    "stdout_hash": "5d79af2917616096390552ec3a12a2b1a4f3315fa0a40da2b059140f",
    "stderr": null,
    "stderr_hash": null,
    "returncode": 0
}