{
    "basename": "asr-intent_01-c1f267a",
    "cmd": "lfortran --show-asr --no-color {infile} -o {outfile}",
    "infile": "tests/../integration_tests/intent_01.f90",
    "infile_hash": "ecbce2d4b01a09bee24ec92ce8be335f75903e746d23a667806bf264",
    "outfile": null,
    "outfile_hash": null,
    "stdout": "asr-intent_01-c1f267a.stdout",
    "stdout_hash": "77dd23d8a82cbe35a09044f93ab5f0f0b0476ff8a7c613c11b5679fd",
    "stderr": null,
    "stderr_hash": null,
    "returncode": 0
}