{
    "basename": "asr-intrinsics_07-240b0d5",
    "cmd": "lfortran --show-asr --no-color {infile} -o {outfile}",
    "infile": "tests/../integration_tests/intrinsics_07.f90",
    "infile_hash": "fb38a4369a15cd151941ce57b634ac91745bd83541722d9fbb171a18",
    "outfile": null,
    "outfile_hash": null,
    "stdout": "asr-intrinsics_07-240b0d5.stdout",
    "stdout_hash": "dcd69163267abdbb86c922e2b031a215211bdb62d948bc1226df0cfb",
    "stderr": null,
    "stderr_hash": null,
    "returncode": 0
}