{
    "basename": "ast-coarrays_01-2b1221b",
    "cmd": "lfortran --show-ast --no-color {infile} -o {outfile}",
    "infile": "tests/coarrays_01.f90",
    "infile_hash": "0faf768530f3dcc921198d975014d734d483ec606e014d31a092cc87",
    "outfile": null,
    "outfile_hash": null,
    "stdout": "ast-coarrays_01-2b1221b.stdout",
    "stdout_hash": "f23043d05064464f1623e6dd1cf2ba95c5c0bf4f7602efc1bed84577",
    "stderr": null,
    "stderr_hash": null,
    "returncode": 0
}