{
    "basename": "ast-goto_03-75b98c5",
    "cmd": "lfortran --show-ast --no-color {infile} -o {outfile}",
    "infile": "tests/../integration_tests/goto_03.f90",
    "infile_hash": "ba13204f07139f797a57ede16077fdfe71bc2c5cdebb7816640ee2f4",
    "outfile": null,
    "outfile_hash": null,
    "stdout": "ast-goto_03-75b98c5.stdout",
    "stdout_hash": "fa9a108e0c2238cfe995a4aa5d9878a1c199817ae07bb7c9e84f3499",
    "stderr": null,
    "stderr_hash": null,
    "returncode": 0
}