{
    "basename": "ast-return1-517cbf1",
    "cmd": "lfortran --show-ast --no-color {infile} -o {outfile}",
    "infile": "tests/return1.f90",
    "infile_hash": "f77416f3b212e5cf5dddc4d2dee526355570f140dfa2dbc033bc84e7",
    "outfile": null,
    "outfile_hash": null,
    "stdout": "ast-return1-517cbf1.stdout",
    "stdout_hash": "bb177d2a690b89f83a479cd64e11a2eb2750d57dba0a69fc47bd3627",
    "stderr": null,
    "stderr_hash": null,
    "returncode": 0
}