{
    "basename": "ast-fixed_form1-7fa677f",
    "cmd": "lfortran --fixed-form --show-ast --no-color {infile} -o {outfile}",
    "infile": "tests/fixed_form1.f",
    "infile_hash": "a6774c19d8ae1f0ab04227a596e393ce26d84d1c0f796b7187a87f1a",
    "outfile": null,
    "outfile_hash": null,
    "stdout": "ast-fixed_form1-7fa677f.stdout",
    "stdout_hash": "1ad4a25e2de2b39198510c516f83545ffa2f13b8f865c2642d15447a",
    "stderr": null,
    "stderr_hash": null,
    "returncode": 0
}