{
    "basename": "ast-associate_01-4a4ac5c",
    "cmd": "lfortran --show-ast --no-color {infile} -o {outfile}",
    "infile": "tests/../integration_tests/associate_01.f90",
    "infile_hash": "e0cc386c192305fd37942e7ab3d7c7c45c5d4b482044f82fb3624bb0",
    "outfile": null,
    "outfile_hash": null,
    "stdout": "ast-associate_01-4a4ac5c.stdout",
    "stdout_hash": "e7fadcf613de2a31fe57bc8d54d3ca3554311f3112d1166f5e61e450",
    "stderr": null,
    "stderr_hash": null,
    "returncode": 0
}