{
    "basename": "ast-string2-eb4e1df",
    "cmd": "lfortran --show-ast --no-color {infile} -o {outfile}",
    "infile": "tests/../integration_tests/string2.f90",
    "infile_hash": "e51c4f0399fd44637cd5a7c06c32e7f6525c83b16722b837bc767909",
    "outfile": null,
    "outfile_hash": null,
    "stdout": "ast-string2-eb4e1df.stdout",
    "stdout_hash": "36911baf392ab81983b4e569e9afe4a33fbaaffe6ba40843d72f2a63",
    "stderr": null,
    "stderr_hash": null,
    "returncode": 0
}