{
    "basename": "ast-parsing_02-740c1e5",
    "cmd": "lfortran --show-ast --no-color {infile} -o {outfile}",
    "infile": "tests/../integration_tests/parsing_02.f90",
    "infile_hash": "9a96b68a8a27fa5a0c4ed1a2afdf6ab322548ac762635d32e202c870",
    "outfile": null,
    "outfile_hash": null,
    "stdout": "ast-parsing_02-740c1e5.stdout",
    "stdout_hash": "c7dff6f80a16f22d1c00e4e3969483dbac65893aec3277cbaf9ebc88",
    "stderr": null,
    "stderr_hash": null,
    "returncode": 0
}