{
    "basename": "ast-string3-24139f8",
    "cmd": "lfortran --show-ast --no-color {infile} -o {outfile}",
    "infile": "tests/../integration_tests/string3.f90",
    "infile_hash": "90188a84217deb8d16424b3aaf49f0b2a999cad8494cdf536c6d27e1",
    "outfile": null,
    "outfile_hash": null,
    "stdout": "ast-string3-24139f8.stdout",
    "stdout_hash": "b8dca7f219625600c02c8050bd85ec92f6fd89f906f78f111584b50f",
    "stderr": null,
    "stderr_hash": null,
    "returncode": 0
}