{
    "basename": "ast-program_cmake_02-d8d8f4d",
    "cmd": "lfortran --show-ast --no-color {infile} -o {outfile}",
    "infile": "tests/../integration_tests/program_cmake_02.f90",
    "infile_hash": "c6368d319f7abf398750ad8860849dc5cb7712f0b79c55ee54604484",
    "outfile": null,
    "outfile_hash": null,
    "stdout": "ast-program_cmake_02-d8d8f4d.stdout",
    "stdout_hash": "5688965c6541631a5b01da6fb37e1bf7fc54e9696a50a5069b1cbd03",
    "stderr": null,
    "stderr_hash": null,
    "returncode": 0
}