{
    "basename": "ast_f90-interface_01-c207eb6",
    "cmd": "lfortran --show-ast-f90 --no-color {infile}",
    "infile": "tests/../integration_tests/interface_01.f90",
    "infile_hash": "56828a66265782f7acd20520a5d25ac6246d6d44dfb8fa758507ed63",
    "outfile": null,
    "outfile_hash": null,
    "stdout": "ast_f90-interface_01-c207eb6.stdout",
    "stdout_hash": "0612606c99ba3e254c99d61798eb2aab59e4e74a6f8ad13bce43ab86",
    "stderr": null,
    "stderr_hash": null,
    "returncode": 0
}