{
    "basename": "ast_f90-derived_types_01-9eab397",
    "cmd": "lfortran --show-ast-f90 --no-color {infile}",
    "infile": "tests/../integration_tests/derived_types_01.f90",
    "infile_hash": "0ab6e47ff2b530c1b0fe16617b37722700952bcc28e8e8cb2f5f0ba9",
    "outfile": null,
    "outfile_hash": null,
    "stdout": "ast_f90-derived_types_01-9eab397.stdout",
    "stdout_hash": "19708143f07f8df5e1bb2b4ddd41340377d0513b65b9e077cbb5ffef",
    "stderr": null,
    "stderr_hash": null,
    "returncode": 0
}