{
    "basename": "ast_f90-critical1-123a609",
    "cmd": "lfortran --show-ast-f90 --no-color {infile}",
    "infile": "tests/critical1.f90",
    "infile_hash": "05948a8c6d4476986b19c2be2d0c40a9ebb19a2007eac02159ab9496",
    "outfile": null,
    "outfile_hash": null,
    "stdout": "ast_f90-critical1-123a609.stdout",
    "stdout_hash": "f027f514c6b8e2bc87fda6c086e4d6f038b2cf91e6a5112895a49beb",
    "stderr": null,
    "stderr_hash": null,
    "returncode": 0
}