{
    "basename": "ast_f90-modules_04-7e7e045",
    "cmd": "lfortran --show-ast-f90 --no-color {infile}",
    "infile": "tests/../integration_tests/modules_04.f90",
    "infile_hash": "c2a3f2488f0cbfc5efc150ea277129289bfb30dc2a42d33d4861357b",
    "outfile": null,
    "outfile_hash": null,
    "stdout": "ast_f90-modules_04-7e7e045.stdout",
    "stdout_hash": "bedb827a67729c9ecf7ccbfd9c921917ffd5dc6643c7344eb0727669",
    "stderr": null,
    "stderr_hash": null,
    "returncode": 0
}