{
    "basename": "ast_f90-types_13-d71b593",
    "cmd": "lfortran --show-ast-f90 --no-color {infile}",
    "infile": "tests/../integration_tests/types_13.f90",
    "infile_hash": "0386b3b949293ae071687d72cec51980cbdce80908080fa69e19a807",
    "outfile": null,
    "outfile_hash": null,
    "stdout": "ast_f90-types_13-d71b593.stdout",
    "stdout_hash": "e192c0b38eaf62ebea303d9871c92c9c06cee3a548681ccdc904e911",
    "stderr": null,
    "stderr_hash": null,
    "returncode": 0
}