{
    "basename": "ast_f90-goto_02-8d94d24",
    "cmd": "lfortran --show-ast-f90 --no-color {infile}",
    "infile": "tests/../integration_tests/goto_02.f90",
    "infile_hash": "2bd2e5ad2c2506c3da506b82aa7d12c7877206410c2d7637f556d10b",
    "outfile": null,
    "outfile_hash": null,
    "stdout": "ast_f90-goto_02-8d94d24.stdout",
    "stdout_hash": "9e04bf0807e6dbb23504d01966c4b866840cb197d2e8a9deea657e3c",
    "stderr": null,
    "stderr_hash": null,
    "returncode": 0
}