{
    "basename": "ast_f90-types_12-6608808",
    "cmd": "lfortran --show-ast-f90 --no-color {infile}",
    "infile": "tests/../integration_tests/types_12.f90",
    "infile_hash": "d5db9207ff7ebb121312ebf448d4b591da2b645185b23095e2558455",
    "outfile": null,
    "outfile_hash": null,
    "stdout": "ast_f90-types_12-6608808.stdout",
    "stdout_hash": "ba53b1cec761162324bf64e77581f18615889874f911d062c81d1c18",
    "stderr": null,
    "stderr_hash": null,
    "returncode": 0
}