program coarrays_01 

! This test should test most of coarray syntax:
! * declarations
! * allocations
! * coarray operations
!
! You can test the syntax manually with GFortran by:
! gfortran -fcoarray=lib -c coarrays_01.f90 -o a.o
!
use iso_fortran_env, only: event_type
implicit none 

! Coarray Declarations
real, dimension(100), codimension[*] :: A
integer :: B[3,*]
integer :: c[*]
real :: D(100,2)[3,*]
real :: E(1,2,3)[1,2,-1:3,*]
real, allocatable :: F(:)[:]
real, allocatable :: g(:,:,:)[:,:,:]
real, dimension(20), codimension[20,*] :: h
real, codimension[:], allocatable :: z(:,:)
character :: r(20)[20,0:*]
type(event_type) :: ok_to_overwrite[*]
type(event_type), allocatable :: greeting_ready(:)[:] 

integer :: i, n 

! Allocation
n = 5
allocate(F(n)[*])
allocate(greeting_ready(num_images())[*])
allocate(g(50, 50, 50)[1:2, 1:2, *]) 

! Array access, events, teams
if (this_image() == 1) then
    do i = 2, num_images()
        c = c + c[i]
        event post (ok_to_overwrite[i])
    end do
else
    event wait (ok_to_overwrite)
    event post (greeting_ready(this_image())[1])
end if 

sync all
sync all ()
sync all (stat = status)
sync all (errmsg = status) 

event wait (variable, until_count = status)
event wait (variable, until_count = status, errmsg = status)
event wait (variable, errmsg = status)
event wait (variable, stat = status)
event post (done(sub(i))[parent(i)], stat = status)
event post (variable, stat = status)
event post (variable, errmsg = status) 

s%a(3)(4) = "S"
s%b[3] = c[4]
s%c(3)[4] = f(3)[4]
c[3] = c[4]
B[1, 2] = B[3, 4]
D(99, 1)[3, 4] = D(1, 2)[1, 2]
D(99, 1)[3, 3] = 5
D(:, 1)[3, 3] = 5
D(:, 1)[3, 3, team=3] = 5
D(:, 1)[3, 3, team=3, stat=i] = 5
D(:, 1)[3, 3, stat=i] = 5 

end program coarrays_01
