{
    "basename": "ast_f90-nullify1-907a879",
    "cmd": "lfortran --show-ast-f90 --no-color {infile}",
    "infile": "tests/nullify1.f90",
    "infile_hash": "f996667719f3f2215e2bf25d7fe502ab13f032f4d8b29b0a3f1329d1",
    "outfile": null,
    "outfile_hash": null,
    "stdout": "ast_f90-nullify1-907a879.stdout",
    "stdout_hash": "957c683aba06bf9a44ac3517c11417da14f3da06995a3f836977a0b7",
    "stderr": null,
    "stderr_hash": null,
    "returncode": 0
}