{
    "basename": "ast_f90-attributes1-66300d9",
    "cmd": "lfortran --show-ast-f90 --no-color {infile}",
    "infile": "tests/attributes1.f90",
    "infile_hash": "6af72463351d9bd43b8d4c4c0fad098384ac0c988a63f68196671527",
    "outfile": null,
    "outfile_hash": null,
    "stdout": "ast_f90-attributes1-66300d9.stdout",
    "stdout_hash": "a99e164344ce5565c4591b1e0bae852504073189ae721743e8678b27",
    "stderr": null,
    "stderr_hash": null,
    "returncode": 0
}