{
    "basename": "ast_f90-derived_types_03-37bab17",
    "cmd": "lfortran --show-ast-f90 --no-color {infile}",
    "infile": "tests/derived_types_03.f90",
    "infile_hash": "0367caa646d88d9d311f2157b87aa8d37c7c09500fea94cc3adacbe3",
    "outfile": null,
    "outfile_hash": null,
    "stdout": "ast_f90-derived_types_03-37bab17.stdout",
    "stdout_hash": "6a1edf2e4b57aa271bb8b7d7a81dae295a5da5e94ad9b4eb9e9a7e1b",
    "stderr": null,
    "stderr_hash": null,
    "returncode": 0
}