{
    "basename": "ast_f90-associate1-780cb58",
    "cmd": "lfortran --show-ast-f90 --no-color {infile}",
    "infile": "tests/associate1.f90",
    "infile_hash": "1f90b3ef799fb354098ee524279bb2b71bf3813b43f2269fb014ec0d",
    "outfile": null,
    "outfile_hash": null,
    "stdout": "ast_f90-associate1-780cb58.stdout",
    "stdout_hash": "4d0b30ba806f37867556b5c8dde02244adca15de62e8b131d7feae81",
    "stderr": null,
    "stderr_hash": null,
    "returncode": 0
}