{
    "basename": "ast_f90-common1-878828e",
    "cmd": "lfortran --show-ast-f90 --no-color {infile}",
    "infile": "tests/common1.f90",
    "infile_hash": "d7a7a1f2f3dfe2e00668bce25dbd3dc8830df902ed2c7841ef1bc6e8",
    "outfile": null,
    "outfile_hash": null,
    "stdout": "ast_f90-common1-878828e.stdout",
    "stdout_hash": "ce90261e0a60a11a245a20f95b8e082c5ce92e6f898b4ebd2f454363",
    "stderr": null,
    "stderr_hash": null,
    "returncode": 0
}