{
    "basename": "ast_f90-subroutine9-d71ae83",
    "cmd": "lfortran --show-ast-f90 --no-color {infile}",
    "infile": "tests/subroutine9.f90",
    "infile_hash": "7936a6a897f4c893828bca05987a6c387bcda279b2ac5f20199ffda3",
    "outfile": null,
    "outfile_hash": null,
    "stdout": "ast_f90-subroutine9-d71ae83.stdout",
    "stdout_hash": "8425d1d51cada31c85037bdec3f90bddc1ef9ed4dde8ffdbdb24ba2c",
    "stderr": null,
    "stderr_hash": null,
    "returncode": 0
}