{
    "basename": "ast_f90-doconcurrentloop_02-bec40fb",
    "cmd": "lfortran --show-ast-f90 --no-color {infile}",
    "infile": "tests/../integration_tests/doconcurrentloop_02.f90",
    "infile_hash": "972a21c452523a0a3060e6b1a0c75e868f5dd660ea5763358ccade86",
    "outfile": null,
    "outfile_hash": null,
    "stdout": "ast_f90-doconcurrentloop_02-bec40fb.stdout",
    "stdout_hash": "8f41f8ed21f4ebfd51d24b02b044b7bad395b845dbe5ca39f9a3ee19",
    "stderr": null,
    "stderr_hash": null,
    "returncode": 0
}