{
    "basename": "ast_f90-program_01-133d597",
    "cmd": "lfortran --show-ast-f90 --no-color {infile}",
    "infile": "tests/../integration_tests/program_01.f90",
    "infile_hash": "917ed02637c7a6c4e5e5407a0ccf45b4ef6ff79355c5c080e53d97e9",
    "outfile": null,
    "outfile_hash": null,
    "stdout": "ast_f90-program_01-133d597.stdout",
    "stdout_hash": "bda9b4332f0311e8084e3169d721dcf600a2b19aeadba95a4208b9d8",
    "stderr": null,
    "stderr_hash": null,
    "returncode": 0
}