{
    "basename": "cpp-arrays_04_func-ac14cef",
    "cmd": "lfortran --show-cpp {infile}",
    "infile": "tests/../integration_tests/arrays_04_func.f90",
    "infile_hash": "50eb699e803e7dace8da286ee49cdb7381ebe3141bff17ca374f1f02",
    "outfile": null,
    "outfile_hash": null,
    "stdout": "cpp-arrays_04_func-ac14cef.stdout",
    "stdout_hash": "237ac8993ec8fb818e11c8c4ea95ba2de830219f3ec24eac27de1196",
    "stderr": null,
    "stderr_hash": null,
    "returncode": 0
}