{
    "basename": "cpp-types_03-235063d",
    "cmd": "lfortran --show-cpp {infile}",
    "infile": "tests/../integration_tests/types_03.f90",
    "infile_hash": "388683b8609d91d174ceb8c24787c982bf1ea22d342e94d44457b861",
    "outfile": null,
    "outfile_hash": null,
    "stdout": "cpp-types_03-235063d.stdout",
    "stdout_hash": "90ef374410e0717070de4c597a0a93e03942c273b702fe4945776fdb",
    "stderr": null,
    "stderr_hash": null,
    "returncode": 0
}