; ModuleID = 'LFortran'
source_filename = "LFortran"

%sub1_nstd_types = type { i32* }
%sub1_vals = type { i32 }

@sub1_nstd_strct = global %sub1_nstd_types zeroinitializer
@sub1_nstd_strct_stack = global [1000 x %sub1_vals] zeroinitializer
@sp_sub1 = global i32 0
@0 = private unnamed_addr constant [8 x i8] c"before:\00", align 1
@1 = private unnamed_addr constant [7 x i8] c"%s %d\0A\00", align 1
@2 = private unnamed_addr constant [7 x i8] c"after:\00", align 1
@3 = private unnamed_addr constant [7 x i8] c"%s %d\0A\00", align 1
@4 = private unnamed_addr constant [10 x i8] c"x in getx\00", align 1
@5 = private unnamed_addr constant [7 x i8] c"%s %d\0A\00", align 1
@6 = private unnamed_addr constant [8 x i8] c"in sub1\00", align 1
@7 = private unnamed_addr constant [4 x i8] c"%s\0A\00", align 1
@8 = private unnamed_addr constant [4 x i8] c"r =\00", align 1
@9 = private unnamed_addr constant [7 x i8] c"%s %d\0A\00", align 1

define i32 @__module_recursion_03_solver(i32 ()* %f, i32* %iter) {
.entry:
  %solver = alloca i32, align 4
  %0 = call i32 %f()
  call void (i8*, ...) @_lfortran_printf(i8* getelementptr inbounds ([7 x i8], [7 x i8]* @1, i32 0, i32 0), i8* getelementptr inbounds ([8 x i8], [8 x i8]* @0, i32 0, i32 0), i32 %0)
  %1 = alloca i32, align 4
  store i32 2, i32* %1, align 4
  %2 = load i32, i32* %iter, align 4
  %3 = sub i32 %2, 1
  %4 = alloca i32, align 4
  store i32 %3, i32* %4, align 4
  %5 = call i32 @__module_recursion_03_sub1(i32* %1, i32* %4)
  %6 = load i32, i32* @sp_sub1, align 4
  %7 = icmp sgt i32 %6, 0
  br i1 %7, label %decrement_sp, label %normal_continue

decrement_sp:                                     ; preds = %.entry
  %8 = add i32 -1, %6
  store i32 %8, i32* @sp_sub1, align 4
  %9 = load i32, i32* @sp_sub1, align 4
  %10 = getelementptr [1000 x %sub1_vals], [1000 x %sub1_vals]* @sub1_nstd_strct_stack, i32 0, i32 %9
  %11 = getelementptr %sub1_vals, %sub1_vals* %10, i32 0, i32 0
  %12 = load i32, i32* %11, align 4
  %13 = load i32*, i32** getelementptr inbounds (%sub1_nstd_types, %sub1_nstd_types* @sub1_nstd_strct, i32 0, i32 0), align 8
  store i32 %12, i32* %13, align 4
  store i32* %13, i32** getelementptr inbounds (%sub1_nstd_types, %sub1_nstd_types* @sub1_nstd_strct, i32 0, i32 0), align 8
  br label %normal_continue

normal_continue:                                  ; preds = %decrement_sp, %.entry
  store i32 %5, i32* %solver, align 4
  %14 = call i32 %f()
  call void (i8*, ...) @_lfortran_printf(i8* getelementptr inbounds ([7 x i8], [7 x i8]* @3, i32 0, i32 0), i8* getelementptr inbounds ([7 x i8], [7 x i8]* @2, i32 0, i32 0), i32 %14)
  %15 = load i32, i32* %solver, align 4
  ret i32 %15
}

define i32 @__module_recursion_03_solver_caller(i32 ()* %f, i32* %iter) {
.entry:
  %solver_caller = alloca i32, align 4
  %0 = call i32 @__module_recursion_03_solver(i32 ()* %f, i32* %iter)
  store i32 %0, i32* %solver_caller, align 4
  %1 = load i32, i32* %solver_caller, align 4
  ret i32 %1
}

define i32 @__module_recursion_03_sub1(i32* %y, i32* %iter) {
.entry:
  %sub1 = alloca i32, align 4
  %tmp = alloca i32, align 4
  %x = alloca i32, align 4
  %0 = load i32, i32* %y, align 4
  store i32 %0, i32* %x, align 4
  store i32* %x, i32** getelementptr inbounds (%sub1_nstd_types, %sub1_nstd_types* @sub1_nstd_strct, i32 0, i32 0), align 8
  call void (i8*, ...) @_lfortran_printf(i8* getelementptr inbounds ([4 x i8], [4 x i8]* @7, i32 0, i32 0), i8* getelementptr inbounds ([8 x i8], [8 x i8]* @6, i32 0, i32 0))
  %1 = load i32, i32* %iter, align 4
  %2 = icmp eq i32 %1, 1
  br i1 %2, label %then, label %else

then:                                             ; preds = %.entry
  store i32 1, i32* %sub1, align 4
  br label %return

return:                                           ; preds = %ifcont, %then
  %3 = load i32, i32* %sub1, align 4
  ret i32 %3

else:                                             ; preds = %.entry
  br label %ifcont

ifcont:                                           ; preds = %else
  %4 = load i32, i32* @sp_sub1, align 4
  %5 = load i32*, i32** getelementptr inbounds (%sub1_nstd_types, %sub1_nstd_types* @sub1_nstd_strct, i32 0, i32 0), align 8
  %6 = getelementptr [1000 x %sub1_vals], [1000 x %sub1_vals]* @sub1_nstd_strct_stack, i32 0, i32 %4
  %7 = getelementptr %sub1_vals, %sub1_vals* %6, i32 0, i32 0
  %8 = load i32, i32* %5, align 4
  store i32 %8, i32* %7, align 4
  %9 = load %sub1_vals, %sub1_vals* %6, align 4
  %10 = getelementptr [1000 x %sub1_vals], [1000 x %sub1_vals]* @sub1_nstd_strct_stack, i32 0, i32 %4
  store %sub1_vals %9, %sub1_vals* %10, align 4
  %11 = add i32 1, %4
  store i32 %11, i32* @sp_sub1, align 4
  %12 = call i32 @__module_recursion_03_getx()
  store i32 %12, i32* %tmp, align 4
  %13 = call i32 @__module_recursion_03_solver_caller(i32 ()* @__module_recursion_03_getx, i32* %iter)
  store i32 %13, i32* %sub1, align 4
  br label %return
}

declare i32 @__module_recursion_03_f()

declare void @_lfortran_printf(i8*, ...)

declare i32 @__module_recursion_03_f.1()

define i32 @__module_recursion_03_getx() {
.entry:
  %getx = alloca i32, align 4
  %0 = load i32*, i32** getelementptr inbounds (%sub1_nstd_types, %sub1_nstd_types* @sub1_nstd_strct, i32 0, i32 0), align 8
  %1 = load i32, i32* %0, align 4
  call void (i8*, ...) @_lfortran_printf(i8* getelementptr inbounds ([7 x i8], [7 x i8]* @5, i32 0, i32 0), i8* getelementptr inbounds ([10 x i8], [10 x i8]* @4, i32 0, i32 0), i32 %1)
  %2 = load i32*, i32** getelementptr inbounds (%sub1_nstd_types, %sub1_nstd_types* @sub1_nstd_strct, i32 0, i32 0), align 8
  %3 = load i32, i32* %2, align 4
  store i32 %3, i32* %getx, align 4
  %4 = load i32, i32* %getx, align 4
  ret i32 %4
}

define i32 @main() {
.entry:
  %r = alloca i32, align 4
  %0 = alloca i32, align 4
  store i32 3, i32* %0, align 4
  %1 = alloca i32, align 4
  store i32 3, i32* %1, align 4
  %2 = call i32 @__module_recursion_03_sub1(i32* %0, i32* %1)
  store i32 %2, i32* %r, align 4
  %3 = load i32, i32* %r, align 4
  call void (i8*, ...) @_lfortran_printf(i8* getelementptr inbounds ([7 x i8], [7 x i8]* @9, i32 0, i32 0), i8* getelementptr inbounds ([4 x i8], [4 x i8]* @8, i32 0, i32 0), i32 %3)
  ret i32 0
}

