{
    "basename": "llvm-expr2-7a8d553",
    "cmd": "lfortran --show-llvm {infile} -o {outfile}",
    "infile": "tests/expr2.f90",
    "infile_hash": "d666975e3f2e2c0cc5c739b85bb21073accdf5692bcb64c9e0278d62",
    "outfile": null,
    "outfile_hash": null,
    "stdout": "llvm-expr2-7a8d553.stdout",
    "stdout_hash": "50783ae1c6c5d94748fdd67d2f4bbd877583caf017a1e958feb0c5e0",
    "stderr": null,
    "stderr_hash": null,
    "returncode": 0
}