; ModuleID = 'LFortran'
source_filename = "LFortran"

%array = type { i32*, i32, [1 x %dimension_descriptor] }
%dimension_descriptor = type { i32, i32, i32, i32 }
%array.0 = type { float*, i32, [1 x %dimension_descriptor] }
%size_arg = type { %dimension_descriptor*, i32 }
%complex_4 = type { float, float }
%array.1 = type { %complex_4*, i32, [3 x %dimension_descriptor], i1 }
%array.2 = type { i32*, i32, [1 x %dimension_descriptor], i1 }
%array.3 = type { float*, i32, [2 x %dimension_descriptor], i1 }

@0 = private unnamed_addr constant [12 x i8] c"ERROR STOP\0A\00", align 1
@1 = private unnamed_addr constant [12 x i8] c"ERROR STOP\0A\00", align 1
@2 = private unnamed_addr constant [12 x i8] c"ERROR STOP\0A\00", align 1
@3 = private unnamed_addr constant [12 x i8] c"ERROR STOP\0A\00", align 1
@4 = private unnamed_addr constant [12 x i8] c"ERROR STOP\0A\00", align 1
@5 = private unnamed_addr constant [12 x i8] c"ERROR STOP\0A\00", align 1

declare i32 @__module_lfortran_intrinsic_array_abs(%array*)

declare i1 @__module_lfortran_intrinsic_array_allocated(%array*)

declare i32 @__module_lfortran_intrinsic_array_floor(%array.0*, i32*)

declare i32 @__module_lfortran_intrinsic_array_int(%array.0*, i32*)

define i32 @__module_lfortran_intrinsic_array_lbound(%dimension_descriptor** %x, i32* %dim) {
.entry:
  %lbound = alloca i32, align 4
  %0 = load %dimension_descriptor*, %dimension_descriptor** %x, align 8
  %1 = load i32, i32* %dim, align 4
  %2 = sub i32 %1, 1
  %3 = getelementptr inbounds %dimension_descriptor, %dimension_descriptor* %0, i32 %2
  %4 = getelementptr %dimension_descriptor, %dimension_descriptor* %3, i32 0, i32 1
  %5 = load i32, i32* %4, align 4
  store i32 %5, i32* %lbound, align 4
  %6 = load i32, i32* %lbound, align 4
  ret i32 %6
}

declare i32 @__module_lfortran_intrinsic_array_max(i32*, i32*)

declare i32 @__module_lfortran_intrinsic_array_maxval(%array*)

declare i32 @__module_lfortran_intrinsic_array_min(i32*, i32*)

declare i32 @__module_lfortran_intrinsic_array_minval(%array*)

declare float @__module_lfortran_intrinsic_array_real(%array*, i32*)

define i32 @__module_lfortran_intrinsic_array_size(%size_arg* %x) {
.entry:
  %size = alloca i32, align 4
  %0 = getelementptr %size_arg, %size_arg* %x, i32 0, i32 0
  %1 = load %dimension_descriptor*, %dimension_descriptor** %0, align 8
  %2 = getelementptr %size_arg, %size_arg* %x, i32 0, i32 1
  %3 = load i32, i32* %2, align 4
  store i32 1, i32* %size, align 4
  %4 = alloca i32, align 4
  store i32 0, i32* %4, align 4
  br label %loop.head

loop.head:                                        ; preds = %loop.body, %.entry
  %5 = load i32, i32* %4, align 4
  %6 = icmp slt i32 %5, %3
  br i1 %6, label %loop.body, label %loop.end

loop.body:                                        ; preds = %loop.head
  %7 = load i32, i32* %4, align 4
  %8 = load i32, i32* %size, align 4
  %9 = getelementptr inbounds %dimension_descriptor, %dimension_descriptor* %1, i32 %7
  %10 = getelementptr %dimension_descriptor, %dimension_descriptor* %9, i32 0, i32 3
  %11 = load i32, i32* %10, align 4
  %12 = mul i32 %8, %11
  store i32 %12, i32* %size, align 4
  %13 = add i32 %7, 1
  store i32 %13, i32* %4, align 4
  br label %loop.head

loop.end:                                         ; preds = %loop.head
  %14 = load i32, i32* %size, align 4
  ret i32 %14
}

declare i32 @__module_lfortran_intrinsic_array_sum(%array*)

declare float @__module_lfortran_intrinsic_array_tiny(%array*)

define i32 @__module_lfortran_intrinsic_array_ubound(%dimension_descriptor** %x, i32* %dim) {
.entry:
  %ubound = alloca i32, align 4
  %0 = load %dimension_descriptor*, %dimension_descriptor** %x, align 8
  %1 = load i32, i32* %dim, align 4
  %2 = sub i32 %1, 1
  %3 = getelementptr inbounds %dimension_descriptor, %dimension_descriptor* %0, i32 %2
  %4 = getelementptr %dimension_descriptor, %dimension_descriptor* %3, i32 0, i32 2
  %5 = load i32, i32* %4, align 4
  store i32 %5, i32* %ubound, align 4
  %6 = load i32, i32* %ubound, align 4
  ret i32 %6
}

define %complex_4 @reduce_sum(%array.1* %c) {
.entry:
  %i = alloca i32, align 4
  %j = alloca i32, align 4
  %k = alloca i32, align 4
  %r = alloca %complex_4, align 8
  %0 = alloca %complex_4, align 8
  %1 = getelementptr %complex_4, %complex_4* %0, i32 0, i32 0
  %2 = getelementptr %complex_4, %complex_4* %0, i32 0, i32 1
  store float 0.000000e+00, float* %1, align 4
  store float 0.000000e+00, float* %2, align 4
  %3 = load %complex_4, %complex_4* %0, align 4
  store %complex_4 %3, %complex_4* %r, align 4
  %4 = alloca %dimension_descriptor*, align 8
  %5 = getelementptr %array.1, %array.1* %c, i32 0, i32 2
  %6 = getelementptr [3 x %dimension_descriptor], [3 x %dimension_descriptor]* %5, i32 0, i32 0
  store %dimension_descriptor* %6, %dimension_descriptor** %4, align 8
  %7 = alloca i32, align 4
  store i32 1, i32* %7, align 4
  %8 = call i32 @__module_lfortran_intrinsic_array_lbound(%dimension_descriptor** %4, i32* %7)
  %9 = sub i32 %8, 1
  store i32 %9, i32* %i, align 4
  br label %loop.head

loop.head:                                        ; preds = %loop.end5, %.entry
  %10 = load i32, i32* %i, align 4
  %11 = add i32 %10, 1
  %12 = alloca %dimension_descriptor*, align 8
  %13 = getelementptr %array.1, %array.1* %c, i32 0, i32 2
  %14 = getelementptr [3 x %dimension_descriptor], [3 x %dimension_descriptor]* %13, i32 0, i32 0
  store %dimension_descriptor* %14, %dimension_descriptor** %12, align 8
  %15 = alloca i32, align 4
  store i32 1, i32* %15, align 4
  %16 = call i32 @__module_lfortran_intrinsic_array_ubound(%dimension_descriptor** %12, i32* %15)
  %17 = icmp sle i32 %11, %16
  br i1 %17, label %loop.body, label %loop.end6

loop.body:                                        ; preds = %loop.head
  %18 = load i32, i32* %i, align 4
  %19 = add i32 %18, 1
  store i32 %19, i32* %i, align 4
  %20 = alloca %dimension_descriptor*, align 8
  %21 = getelementptr %array.1, %array.1* %c, i32 0, i32 2
  %22 = getelementptr [3 x %dimension_descriptor], [3 x %dimension_descriptor]* %21, i32 0, i32 0
  store %dimension_descriptor* %22, %dimension_descriptor** %20, align 8
  %23 = alloca i32, align 4
  store i32 2, i32* %23, align 4
  %24 = call i32 @__module_lfortran_intrinsic_array_lbound(%dimension_descriptor** %20, i32* %23)
  %25 = sub i32 %24, 1
  store i32 %25, i32* %j, align 4
  br label %loop.head1

loop.head1:                                       ; preds = %loop.end, %loop.body
  %26 = load i32, i32* %j, align 4
  %27 = add i32 %26, 1
  %28 = alloca %dimension_descriptor*, align 8
  %29 = getelementptr %array.1, %array.1* %c, i32 0, i32 2
  %30 = getelementptr [3 x %dimension_descriptor], [3 x %dimension_descriptor]* %29, i32 0, i32 0
  store %dimension_descriptor* %30, %dimension_descriptor** %28, align 8
  %31 = alloca i32, align 4
  store i32 2, i32* %31, align 4
  %32 = call i32 @__module_lfortran_intrinsic_array_ubound(%dimension_descriptor** %28, i32* %31)
  %33 = icmp sle i32 %27, %32
  br i1 %33, label %loop.body2, label %loop.end5

loop.body2:                                       ; preds = %loop.head1
  %34 = load i32, i32* %j, align 4
  %35 = add i32 %34, 1
  store i32 %35, i32* %j, align 4
  %36 = alloca %dimension_descriptor*, align 8
  %37 = getelementptr %array.1, %array.1* %c, i32 0, i32 2
  %38 = getelementptr [3 x %dimension_descriptor], [3 x %dimension_descriptor]* %37, i32 0, i32 0
  store %dimension_descriptor* %38, %dimension_descriptor** %36, align 8
  %39 = alloca i32, align 4
  store i32 3, i32* %39, align 4
  %40 = call i32 @__module_lfortran_intrinsic_array_lbound(%dimension_descriptor** %36, i32* %39)
  %41 = sub i32 %40, 1
  store i32 %41, i32* %k, align 4
  br label %loop.head3

loop.head3:                                       ; preds = %loop.body4, %loop.body2
  %42 = load i32, i32* %k, align 4
  %43 = add i32 %42, 1
  %44 = alloca %dimension_descriptor*, align 8
  %45 = getelementptr %array.1, %array.1* %c, i32 0, i32 2
  %46 = getelementptr [3 x %dimension_descriptor], [3 x %dimension_descriptor]* %45, i32 0, i32 0
  store %dimension_descriptor* %46, %dimension_descriptor** %44, align 8
  %47 = alloca i32, align 4
  store i32 3, i32* %47, align 4
  %48 = call i32 @__module_lfortran_intrinsic_array_ubound(%dimension_descriptor** %44, i32* %47)
  %49 = icmp sle i32 %43, %48
  br i1 %49, label %loop.body4, label %loop.end

loop.body4:                                       ; preds = %loop.head3
  %50 = load i32, i32* %k, align 4
  %51 = add i32 %50, 1
  store i32 %51, i32* %k, align 4
  %52 = load %complex_4, %complex_4* %r, align 4
  %53 = load i32, i32* %i, align 4
  %54 = load i32, i32* %j, align 4
  %55 = load i32, i32* %k, align 4
  %56 = getelementptr %array.1, %array.1* %c, i32 0, i32 2
  %57 = getelementptr [3 x %dimension_descriptor], [3 x %dimension_descriptor]* %56, i32 0, i32 0
  %58 = getelementptr %dimension_descriptor, %dimension_descriptor* %57, i32 0, i32 1
  %59 = load i32, i32* %58, align 4
  %60 = sub i32 %53, %59
  %61 = mul i32 1, %60
  %62 = add i32 0, %61
  %63 = getelementptr %dimension_descriptor, %dimension_descriptor* %57, i32 0, i32 3
  %64 = load i32, i32* %63, align 4
  %65 = mul i32 1, %64
  %66 = getelementptr [3 x %dimension_descriptor], [3 x %dimension_descriptor]* %56, i32 0, i32 1
  %67 = getelementptr %dimension_descriptor, %dimension_descriptor* %66, i32 0, i32 1
  %68 = load i32, i32* %67, align 4
  %69 = sub i32 %54, %68
  %70 = mul i32 %65, %69
  %71 = add i32 %62, %70
  %72 = getelementptr %dimension_descriptor, %dimension_descriptor* %66, i32 0, i32 3
  %73 = load i32, i32* %72, align 4
  %74 = mul i32 %65, %73
  %75 = getelementptr [3 x %dimension_descriptor], [3 x %dimension_descriptor]* %56, i32 0, i32 2
  %76 = getelementptr %dimension_descriptor, %dimension_descriptor* %75, i32 0, i32 1
  %77 = load i32, i32* %76, align 4
  %78 = sub i32 %55, %77
  %79 = mul i32 %74, %78
  %80 = add i32 %71, %79
  %81 = getelementptr %dimension_descriptor, %dimension_descriptor* %75, i32 0, i32 3
  %82 = load i32, i32* %81, align 4
  %83 = mul i32 %74, %82
  %84 = getelementptr %array.1, %array.1* %c, i32 0, i32 0
  %85 = load %complex_4*, %complex_4** %84, align 8
  %86 = getelementptr inbounds %complex_4, %complex_4* %85, i32 %80
  %87 = load %complex_4, %complex_4* %86, align 4
  %88 = alloca %complex_4, align 8
  store %complex_4 %52, %complex_4* %88, align 4
  %89 = alloca %complex_4, align 8
  store %complex_4 %87, %complex_4* %89, align 4
  %90 = alloca %complex_4, align 8
  call void (%complex_4*, %complex_4*, %complex_4*, ...) @_lfortran_complex_add(%complex_4* %88, %complex_4* %89, %complex_4* %90)
  %91 = load %complex_4, %complex_4* %90, align 4
  store %complex_4 %91, %complex_4* %r, align 4
  br label %loop.head3

loop.end:                                         ; preds = %loop.head3
  br label %loop.head1

loop.end5:                                        ; preds = %loop.head1
  br label %loop.head

loop.end6:                                        ; preds = %loop.head
  %92 = load %complex_4, %complex_4* %r, align 4
  ret %complex_4 %92
}

declare void @_lfortran_complex_add(%complex_4*, %complex_4*, %complex_4*, ...)

define void @sum(%array.2* %a, %array.3* %b, %array.1* %c) {
.entry:
  %c_copy = alloca %array.1, align 8
  %i = alloca i32, align 4
  %j = alloca i32, align 4
  %k = alloca i32, align 4
  %0 = alloca %dimension_descriptor*, align 8
  %1 = getelementptr %array.2, %array.2* %a, i32 0, i32 2
  %2 = getelementptr [1 x %dimension_descriptor], [1 x %dimension_descriptor]* %1, i32 0, i32 0
  store %dimension_descriptor* %2, %dimension_descriptor** %0, align 8
  %3 = alloca i32, align 4
  store i32 1, i32* %3, align 4
  %4 = call i32 @__module_lfortran_intrinsic_array_lbound(%dimension_descriptor** %0, i32* %3)
  %5 = alloca %dimension_descriptor*, align 8
  %6 = getelementptr %array.2, %array.2* %a, i32 0, i32 2
  %7 = getelementptr [1 x %dimension_descriptor], [1 x %dimension_descriptor]* %6, i32 0, i32 0
  store %dimension_descriptor* %7, %dimension_descriptor** %5, align 8
  %8 = alloca i32, align 4
  store i32 1, i32* %8, align 4
  %9 = call i32 @__module_lfortran_intrinsic_array_ubound(%dimension_descriptor** %5, i32* %8)
  %10 = alloca %dimension_descriptor*, align 8
  %11 = getelementptr %array.3, %array.3* %b, i32 0, i32 2
  %12 = getelementptr [2 x %dimension_descriptor], [2 x %dimension_descriptor]* %11, i32 0, i32 0
  store %dimension_descriptor* %12, %dimension_descriptor** %10, align 8
  %13 = alloca i32, align 4
  store i32 1, i32* %13, align 4
  %14 = call i32 @__module_lfortran_intrinsic_array_lbound(%dimension_descriptor** %10, i32* %13)
  %15 = alloca %dimension_descriptor*, align 8
  %16 = getelementptr %array.3, %array.3* %b, i32 0, i32 2
  %17 = getelementptr [2 x %dimension_descriptor], [2 x %dimension_descriptor]* %16, i32 0, i32 0
  store %dimension_descriptor* %17, %dimension_descriptor** %15, align 8
  %18 = alloca i32, align 4
  store i32 1, i32* %18, align 4
  %19 = call i32 @__module_lfortran_intrinsic_array_ubound(%dimension_descriptor** %15, i32* %18)
  %20 = alloca %dimension_descriptor*, align 8
  %21 = getelementptr %array.3, %array.3* %b, i32 0, i32 2
  %22 = getelementptr [2 x %dimension_descriptor], [2 x %dimension_descriptor]* %21, i32 0, i32 0
  store %dimension_descriptor* %22, %dimension_descriptor** %20, align 8
  %23 = alloca i32, align 4
  store i32 2, i32* %23, align 4
  %24 = call i32 @__module_lfortran_intrinsic_array_lbound(%dimension_descriptor** %20, i32* %23)
  %25 = alloca %dimension_descriptor*, align 8
  %26 = getelementptr %array.3, %array.3* %b, i32 0, i32 2
  %27 = getelementptr [2 x %dimension_descriptor], [2 x %dimension_descriptor]* %26, i32 0, i32 0
  store %dimension_descriptor* %27, %dimension_descriptor** %25, align 8
  %28 = alloca i32, align 4
  store i32 2, i32* %28, align 4
  %29 = call i32 @__module_lfortran_intrinsic_array_ubound(%dimension_descriptor** %25, i32* %28)
  %30 = getelementptr %array.1, %array.1* %c_copy, i32 0, i32 1
  store i32 0, i32* %30, align 4
  %31 = getelementptr %array.1, %array.1* %c_copy, i32 0, i32 3
  store i1 true, i1* %31, align 1
  %32 = getelementptr %array.1, %array.1* %c_copy, i32 0, i32 2
  %33 = getelementptr [3 x %dimension_descriptor], [3 x %dimension_descriptor]* %32, i32 0, i32 0
  %34 = getelementptr %dimension_descriptor, %dimension_descriptor* %33, i32 0, i32 0
  %35 = getelementptr %dimension_descriptor, %dimension_descriptor* %33, i32 0, i32 1
  %36 = getelementptr %dimension_descriptor, %dimension_descriptor* %33, i32 0, i32 2
  %37 = getelementptr %dimension_descriptor, %dimension_descriptor* %33, i32 0, i32 3
  store i32 1, i32* %34, align 4
  store i32 %4, i32* %35, align 4
  store i32 %9, i32* %36, align 4
  %38 = load i32, i32* %36, align 4
  %39 = load i32, i32* %35, align 4
  %40 = sub i32 %38, %39
  %41 = add i32 %40, 1
  %42 = mul i32 1, %41
  store i32 %41, i32* %37, align 4
  %43 = getelementptr [3 x %dimension_descriptor], [3 x %dimension_descriptor]* %32, i32 0, i32 1
  %44 = getelementptr %dimension_descriptor, %dimension_descriptor* %43, i32 0, i32 0
  %45 = getelementptr %dimension_descriptor, %dimension_descriptor* %43, i32 0, i32 1
  %46 = getelementptr %dimension_descriptor, %dimension_descriptor* %43, i32 0, i32 2
  %47 = getelementptr %dimension_descriptor, %dimension_descriptor* %43, i32 0, i32 3
  store i32 1, i32* %44, align 4
  store i32 %14, i32* %45, align 4
  store i32 %19, i32* %46, align 4
  %48 = load i32, i32* %46, align 4
  %49 = load i32, i32* %45, align 4
  %50 = sub i32 %48, %49
  %51 = add i32 %50, 1
  %52 = mul i32 %42, %51
  store i32 %51, i32* %47, align 4
  %53 = getelementptr [3 x %dimension_descriptor], [3 x %dimension_descriptor]* %32, i32 0, i32 2
  %54 = getelementptr %dimension_descriptor, %dimension_descriptor* %53, i32 0, i32 0
  %55 = getelementptr %dimension_descriptor, %dimension_descriptor* %53, i32 0, i32 1
  %56 = getelementptr %dimension_descriptor, %dimension_descriptor* %53, i32 0, i32 2
  %57 = getelementptr %dimension_descriptor, %dimension_descriptor* %53, i32 0, i32 3
  store i32 1, i32* %54, align 4
  store i32 %24, i32* %55, align 4
  store i32 %29, i32* %56, align 4
  %58 = load i32, i32* %56, align 4
  %59 = load i32, i32* %55, align 4
  %60 = sub i32 %58, %59
  %61 = add i32 %60, 1
  %62 = mul i32 %52, %61
  store i32 %61, i32* %57, align 4
  %63 = getelementptr %array.1, %array.1* %c_copy, i32 0, i32 0
  %64 = alloca i32, align 4
  %65 = mul i32 %62, 8
  store i32 %65, i32* %64, align 4
  %66 = load i32, i32* %64, align 4
  %67 = call i8* (i32, ...) @_lfortran_malloc(i32 %66)
  %68 = bitcast i8* %67 to %complex_4*
  store %complex_4* %68, %complex_4** %63, align 8
  %69 = alloca %dimension_descriptor*, align 8
  %70 = getelementptr %array.2, %array.2* %a, i32 0, i32 2
  %71 = getelementptr [1 x %dimension_descriptor], [1 x %dimension_descriptor]* %70, i32 0, i32 0
  store %dimension_descriptor* %71, %dimension_descriptor** %69, align 8
  %72 = alloca i32, align 4
  store i32 1, i32* %72, align 4
  %73 = call i32 @__module_lfortran_intrinsic_array_lbound(%dimension_descriptor** %69, i32* %72)
  %74 = alloca %dimension_descriptor*, align 8
  %75 = getelementptr %array.2, %array.2* %a, i32 0, i32 2
  %76 = getelementptr [1 x %dimension_descriptor], [1 x %dimension_descriptor]* %75, i32 0, i32 0
  store %dimension_descriptor* %76, %dimension_descriptor** %74, align 8
  %77 = alloca i32, align 4
  store i32 1, i32* %77, align 4
  %78 = call i32 @__module_lfortran_intrinsic_array_ubound(%dimension_descriptor** %74, i32* %77)
  %79 = alloca %dimension_descriptor*, align 8
  %80 = getelementptr %array.3, %array.3* %b, i32 0, i32 2
  %81 = getelementptr [2 x %dimension_descriptor], [2 x %dimension_descriptor]* %80, i32 0, i32 0
  store %dimension_descriptor* %81, %dimension_descriptor** %79, align 8
  %82 = alloca i32, align 4
  store i32 1, i32* %82, align 4
  %83 = call i32 @__module_lfortran_intrinsic_array_lbound(%dimension_descriptor** %79, i32* %82)
  %84 = alloca %dimension_descriptor*, align 8
  %85 = getelementptr %array.3, %array.3* %b, i32 0, i32 2
  %86 = getelementptr [2 x %dimension_descriptor], [2 x %dimension_descriptor]* %85, i32 0, i32 0
  store %dimension_descriptor* %86, %dimension_descriptor** %84, align 8
  %87 = alloca i32, align 4
  store i32 1, i32* %87, align 4
  %88 = call i32 @__module_lfortran_intrinsic_array_ubound(%dimension_descriptor** %84, i32* %87)
  %89 = alloca %dimension_descriptor*, align 8
  %90 = getelementptr %array.3, %array.3* %b, i32 0, i32 2
  %91 = getelementptr [2 x %dimension_descriptor], [2 x %dimension_descriptor]* %90, i32 0, i32 0
  store %dimension_descriptor* %91, %dimension_descriptor** %89, align 8
  %92 = alloca i32, align 4
  store i32 2, i32* %92, align 4
  %93 = call i32 @__module_lfortran_intrinsic_array_lbound(%dimension_descriptor** %89, i32* %92)
  %94 = alloca %dimension_descriptor*, align 8
  %95 = getelementptr %array.3, %array.3* %b, i32 0, i32 2
  %96 = getelementptr [2 x %dimension_descriptor], [2 x %dimension_descriptor]* %95, i32 0, i32 0
  store %dimension_descriptor* %96, %dimension_descriptor** %94, align 8
  %97 = alloca i32, align 4
  store i32 2, i32* %97, align 4
  %98 = call i32 @__module_lfortran_intrinsic_array_ubound(%dimension_descriptor** %94, i32* %97)
  %99 = getelementptr %array.1, %array.1* %c, i32 0, i32 1
  store i32 0, i32* %99, align 4
  %100 = getelementptr %array.1, %array.1* %c, i32 0, i32 3
  store i1 true, i1* %100, align 1
  %101 = getelementptr %array.1, %array.1* %c, i32 0, i32 2
  %102 = getelementptr [3 x %dimension_descriptor], [3 x %dimension_descriptor]* %101, i32 0, i32 0
  %103 = getelementptr %dimension_descriptor, %dimension_descriptor* %102, i32 0, i32 0
  %104 = getelementptr %dimension_descriptor, %dimension_descriptor* %102, i32 0, i32 1
  %105 = getelementptr %dimension_descriptor, %dimension_descriptor* %102, i32 0, i32 2
  %106 = getelementptr %dimension_descriptor, %dimension_descriptor* %102, i32 0, i32 3
  store i32 1, i32* %103, align 4
  store i32 %73, i32* %104, align 4
  store i32 %78, i32* %105, align 4
  %107 = load i32, i32* %105, align 4
  %108 = load i32, i32* %104, align 4
  %109 = sub i32 %107, %108
  %110 = add i32 %109, 1
  %111 = mul i32 1, %110
  store i32 %110, i32* %106, align 4
  %112 = getelementptr [3 x %dimension_descriptor], [3 x %dimension_descriptor]* %101, i32 0, i32 1
  %113 = getelementptr %dimension_descriptor, %dimension_descriptor* %112, i32 0, i32 0
  %114 = getelementptr %dimension_descriptor, %dimension_descriptor* %112, i32 0, i32 1
  %115 = getelementptr %dimension_descriptor, %dimension_descriptor* %112, i32 0, i32 2
  %116 = getelementptr %dimension_descriptor, %dimension_descriptor* %112, i32 0, i32 3
  store i32 1, i32* %113, align 4
  store i32 %83, i32* %114, align 4
  store i32 %88, i32* %115, align 4
  %117 = load i32, i32* %115, align 4
  %118 = load i32, i32* %114, align 4
  %119 = sub i32 %117, %118
  %120 = add i32 %119, 1
  %121 = mul i32 %111, %120
  store i32 %120, i32* %116, align 4
  %122 = getelementptr [3 x %dimension_descriptor], [3 x %dimension_descriptor]* %101, i32 0, i32 2
  %123 = getelementptr %dimension_descriptor, %dimension_descriptor* %122, i32 0, i32 0
  %124 = getelementptr %dimension_descriptor, %dimension_descriptor* %122, i32 0, i32 1
  %125 = getelementptr %dimension_descriptor, %dimension_descriptor* %122, i32 0, i32 2
  %126 = getelementptr %dimension_descriptor, %dimension_descriptor* %122, i32 0, i32 3
  store i32 1, i32* %123, align 4
  store i32 %93, i32* %124, align 4
  store i32 %98, i32* %125, align 4
  %127 = load i32, i32* %125, align 4
  %128 = load i32, i32* %124, align 4
  %129 = sub i32 %127, %128
  %130 = add i32 %129, 1
  %131 = mul i32 %121, %130
  store i32 %130, i32* %126, align 4
  %132 = getelementptr %array.1, %array.1* %c, i32 0, i32 0
  %133 = alloca i32, align 4
  %134 = mul i32 %131, 8
  store i32 %134, i32* %133, align 4
  %135 = load i32, i32* %133, align 4
  %136 = call i8* (i32, ...) @_lfortran_malloc(i32 %135)
  %137 = bitcast i8* %136 to %complex_4*
  store %complex_4* %137, %complex_4** %132, align 8
  %138 = alloca %dimension_descriptor*, align 8
  %139 = getelementptr %array.2, %array.2* %a, i32 0, i32 2
  %140 = getelementptr [1 x %dimension_descriptor], [1 x %dimension_descriptor]* %139, i32 0, i32 0
  store %dimension_descriptor* %140, %dimension_descriptor** %138, align 8
  %141 = alloca i32, align 4
  store i32 1, i32* %141, align 4
  %142 = call i32 @__module_lfortran_intrinsic_array_lbound(%dimension_descriptor** %138, i32* %141)
  %143 = sub i32 %142, 1
  store i32 %143, i32* %i, align 4
  br label %loop.head

loop.head:                                        ; preds = %loop.end5, %.entry
  %144 = load i32, i32* %i, align 4
  %145 = add i32 %144, 1
  %146 = alloca %dimension_descriptor*, align 8
  %147 = getelementptr %array.2, %array.2* %a, i32 0, i32 2
  %148 = getelementptr [1 x %dimension_descriptor], [1 x %dimension_descriptor]* %147, i32 0, i32 0
  store %dimension_descriptor* %148, %dimension_descriptor** %146, align 8
  %149 = alloca i32, align 4
  store i32 1, i32* %149, align 4
  %150 = call i32 @__module_lfortran_intrinsic_array_ubound(%dimension_descriptor** %146, i32* %149)
  %151 = icmp sle i32 %145, %150
  br i1 %151, label %loop.body, label %loop.end6

loop.body:                                        ; preds = %loop.head
  %152 = load i32, i32* %i, align 4
  %153 = add i32 %152, 1
  store i32 %153, i32* %i, align 4
  %154 = alloca %dimension_descriptor*, align 8
  %155 = getelementptr %array.3, %array.3* %b, i32 0, i32 2
  %156 = getelementptr [2 x %dimension_descriptor], [2 x %dimension_descriptor]* %155, i32 0, i32 0
  store %dimension_descriptor* %156, %dimension_descriptor** %154, align 8
  %157 = alloca i32, align 4
  store i32 1, i32* %157, align 4
  %158 = call i32 @__module_lfortran_intrinsic_array_lbound(%dimension_descriptor** %154, i32* %157)
  %159 = sub i32 %158, 1
  store i32 %159, i32* %j, align 4
  br label %loop.head1

loop.head1:                                       ; preds = %loop.end, %loop.body
  %160 = load i32, i32* %j, align 4
  %161 = add i32 %160, 1
  %162 = alloca %dimension_descriptor*, align 8
  %163 = getelementptr %array.3, %array.3* %b, i32 0, i32 2
  %164 = getelementptr [2 x %dimension_descriptor], [2 x %dimension_descriptor]* %163, i32 0, i32 0
  store %dimension_descriptor* %164, %dimension_descriptor** %162, align 8
  %165 = alloca i32, align 4
  store i32 1, i32* %165, align 4
  %166 = call i32 @__module_lfortran_intrinsic_array_ubound(%dimension_descriptor** %162, i32* %165)
  %167 = icmp sle i32 %161, %166
  br i1 %167, label %loop.body2, label %loop.end5

loop.body2:                                       ; preds = %loop.head1
  %168 = load i32, i32* %j, align 4
  %169 = add i32 %168, 1
  store i32 %169, i32* %j, align 4
  %170 = alloca %dimension_descriptor*, align 8
  %171 = getelementptr %array.3, %array.3* %b, i32 0, i32 2
  %172 = getelementptr [2 x %dimension_descriptor], [2 x %dimension_descriptor]* %171, i32 0, i32 0
  store %dimension_descriptor* %172, %dimension_descriptor** %170, align 8
  %173 = alloca i32, align 4
  store i32 2, i32* %173, align 4
  %174 = call i32 @__module_lfortran_intrinsic_array_lbound(%dimension_descriptor** %170, i32* %173)
  %175 = sub i32 %174, 1
  store i32 %175, i32* %k, align 4
  br label %loop.head3

loop.head3:                                       ; preds = %loop.body4, %loop.body2
  %176 = load i32, i32* %k, align 4
  %177 = add i32 %176, 1
  %178 = alloca %dimension_descriptor*, align 8
  %179 = getelementptr %array.3, %array.3* %b, i32 0, i32 2
  %180 = getelementptr [2 x %dimension_descriptor], [2 x %dimension_descriptor]* %179, i32 0, i32 0
  store %dimension_descriptor* %180, %dimension_descriptor** %178, align 8
  %181 = alloca i32, align 4
  store i32 2, i32* %181, align 4
  %182 = call i32 @__module_lfortran_intrinsic_array_ubound(%dimension_descriptor** %178, i32* %181)
  %183 = icmp sle i32 %177, %182
  br i1 %183, label %loop.body4, label %loop.end

loop.body4:                                       ; preds = %loop.head3
  %184 = load i32, i32* %k, align 4
  %185 = add i32 %184, 1
  store i32 %185, i32* %k, align 4
  %186 = load i32, i32* %i, align 4
  %187 = load i32, i32* %j, align 4
  %188 = load i32, i32* %k, align 4
  %189 = getelementptr %array.1, %array.1* %c_copy, i32 0, i32 2
  %190 = getelementptr [3 x %dimension_descriptor], [3 x %dimension_descriptor]* %189, i32 0, i32 0
  %191 = getelementptr %dimension_descriptor, %dimension_descriptor* %190, i32 0, i32 1
  %192 = load i32, i32* %191, align 4
  %193 = sub i32 %186, %192
  %194 = mul i32 1, %193
  %195 = add i32 0, %194
  %196 = getelementptr %dimension_descriptor, %dimension_descriptor* %190, i32 0, i32 3
  %197 = load i32, i32* %196, align 4
  %198 = mul i32 1, %197
  %199 = getelementptr [3 x %dimension_descriptor], [3 x %dimension_descriptor]* %189, i32 0, i32 1
  %200 = getelementptr %dimension_descriptor, %dimension_descriptor* %199, i32 0, i32 1
  %201 = load i32, i32* %200, align 4
  %202 = sub i32 %187, %201
  %203 = mul i32 %198, %202
  %204 = add i32 %195, %203
  %205 = getelementptr %dimension_descriptor, %dimension_descriptor* %199, i32 0, i32 3
  %206 = load i32, i32* %205, align 4
  %207 = mul i32 %198, %206
  %208 = getelementptr [3 x %dimension_descriptor], [3 x %dimension_descriptor]* %189, i32 0, i32 2
  %209 = getelementptr %dimension_descriptor, %dimension_descriptor* %208, i32 0, i32 1
  %210 = load i32, i32* %209, align 4
  %211 = sub i32 %188, %210
  %212 = mul i32 %207, %211
  %213 = add i32 %204, %212
  %214 = getelementptr %dimension_descriptor, %dimension_descriptor* %208, i32 0, i32 3
  %215 = load i32, i32* %214, align 4
  %216 = mul i32 %207, %215
  %217 = getelementptr %array.1, %array.1* %c_copy, i32 0, i32 0
  %218 = load %complex_4*, %complex_4** %217, align 8
  %219 = getelementptr inbounds %complex_4, %complex_4* %218, i32 %213
  %220 = load i32, i32* %i, align 4
  %221 = getelementptr %array.2, %array.2* %a, i32 0, i32 2
  %222 = getelementptr [1 x %dimension_descriptor], [1 x %dimension_descriptor]* %221, i32 0, i32 0
  %223 = getelementptr %dimension_descriptor, %dimension_descriptor* %222, i32 0, i32 1
  %224 = load i32, i32* %223, align 4
  %225 = sub i32 %220, %224
  %226 = mul i32 1, %225
  %227 = add i32 0, %226
  %228 = getelementptr %dimension_descriptor, %dimension_descriptor* %222, i32 0, i32 3
  %229 = load i32, i32* %228, align 4
  %230 = mul i32 1, %229
  %231 = getelementptr %array.2, %array.2* %a, i32 0, i32 0
  %232 = load i32*, i32** %231, align 8
  %233 = getelementptr inbounds i32, i32* %232, i32 %227
  %234 = load i32, i32* %233, align 4
  %235 = sitofp i32 %234 to float
  %236 = load i32, i32* %j, align 4
  %237 = load i32, i32* %k, align 4
  %238 = getelementptr %array.3, %array.3* %b, i32 0, i32 2
  %239 = getelementptr [2 x %dimension_descriptor], [2 x %dimension_descriptor]* %238, i32 0, i32 0
  %240 = getelementptr %dimension_descriptor, %dimension_descriptor* %239, i32 0, i32 1
  %241 = load i32, i32* %240, align 4
  %242 = sub i32 %236, %241
  %243 = mul i32 1, %242
  %244 = add i32 0, %243
  %245 = getelementptr %dimension_descriptor, %dimension_descriptor* %239, i32 0, i32 3
  %246 = load i32, i32* %245, align 4
  %247 = mul i32 1, %246
  %248 = getelementptr [2 x %dimension_descriptor], [2 x %dimension_descriptor]* %238, i32 0, i32 1
  %249 = getelementptr %dimension_descriptor, %dimension_descriptor* %248, i32 0, i32 1
  %250 = load i32, i32* %249, align 4
  %251 = sub i32 %237, %250
  %252 = mul i32 %247, %251
  %253 = add i32 %244, %252
  %254 = getelementptr %dimension_descriptor, %dimension_descriptor* %248, i32 0, i32 3
  %255 = load i32, i32* %254, align 4
  %256 = mul i32 %247, %255
  %257 = getelementptr %array.3, %array.3* %b, i32 0, i32 0
  %258 = load float*, float** %257, align 8
  %259 = getelementptr inbounds float, float* %258, i32 %253
  %260 = load float, float* %259, align 4
  %261 = fadd float %235, %260
  %262 = alloca %complex_4, align 8
  %263 = getelementptr %complex_4, %complex_4* %262, i32 0, i32 0
  %264 = getelementptr %complex_4, %complex_4* %262, i32 0, i32 1
  store float %261, float* %263, align 4
  store float 0.000000e+00, float* %264, align 4
  %265 = load %complex_4, %complex_4* %262, align 4
  store %complex_4 %265, %complex_4* %219, align 4
  %266 = load i32, i32* %i, align 4
  %267 = load i32, i32* %j, align 4
  %268 = load i32, i32* %k, align 4
  %269 = getelementptr %array.1, %array.1* %c, i32 0, i32 2
  %270 = getelementptr [3 x %dimension_descriptor], [3 x %dimension_descriptor]* %269, i32 0, i32 0
  %271 = getelementptr %dimension_descriptor, %dimension_descriptor* %270, i32 0, i32 1
  %272 = load i32, i32* %271, align 4
  %273 = sub i32 %266, %272
  %274 = mul i32 1, %273
  %275 = add i32 0, %274
  %276 = getelementptr %dimension_descriptor, %dimension_descriptor* %270, i32 0, i32 3
  %277 = load i32, i32* %276, align 4
  %278 = mul i32 1, %277
  %279 = getelementptr [3 x %dimension_descriptor], [3 x %dimension_descriptor]* %269, i32 0, i32 1
  %280 = getelementptr %dimension_descriptor, %dimension_descriptor* %279, i32 0, i32 1
  %281 = load i32, i32* %280, align 4
  %282 = sub i32 %267, %281
  %283 = mul i32 %278, %282
  %284 = add i32 %275, %283
  %285 = getelementptr %dimension_descriptor, %dimension_descriptor* %279, i32 0, i32 3
  %286 = load i32, i32* %285, align 4
  %287 = mul i32 %278, %286
  %288 = getelementptr [3 x %dimension_descriptor], [3 x %dimension_descriptor]* %269, i32 0, i32 2
  %289 = getelementptr %dimension_descriptor, %dimension_descriptor* %288, i32 0, i32 1
  %290 = load i32, i32* %289, align 4
  %291 = sub i32 %268, %290
  %292 = mul i32 %287, %291
  %293 = add i32 %284, %292
  %294 = getelementptr %dimension_descriptor, %dimension_descriptor* %288, i32 0, i32 3
  %295 = load i32, i32* %294, align 4
  %296 = mul i32 %287, %295
  %297 = getelementptr %array.1, %array.1* %c, i32 0, i32 0
  %298 = load %complex_4*, %complex_4** %297, align 8
  %299 = getelementptr inbounds %complex_4, %complex_4* %298, i32 %293
  %300 = load i32, i32* %i, align 4
  %301 = getelementptr %array.2, %array.2* %a, i32 0, i32 2
  %302 = getelementptr [1 x %dimension_descriptor], [1 x %dimension_descriptor]* %301, i32 0, i32 0
  %303 = getelementptr %dimension_descriptor, %dimension_descriptor* %302, i32 0, i32 1
  %304 = load i32, i32* %303, align 4
  %305 = sub i32 %300, %304
  %306 = mul i32 1, %305
  %307 = add i32 0, %306
  %308 = getelementptr %dimension_descriptor, %dimension_descriptor* %302, i32 0, i32 3
  %309 = load i32, i32* %308, align 4
  %310 = mul i32 1, %309
  %311 = getelementptr %array.2, %array.2* %a, i32 0, i32 0
  %312 = load i32*, i32** %311, align 8
  %313 = getelementptr inbounds i32, i32* %312, i32 %307
  %314 = load i32, i32* %313, align 4
  %315 = sitofp i32 %314 to float
  %316 = load i32, i32* %j, align 4
  %317 = load i32, i32* %k, align 4
  %318 = getelementptr %array.3, %array.3* %b, i32 0, i32 2
  %319 = getelementptr [2 x %dimension_descriptor], [2 x %dimension_descriptor]* %318, i32 0, i32 0
  %320 = getelementptr %dimension_descriptor, %dimension_descriptor* %319, i32 0, i32 1
  %321 = load i32, i32* %320, align 4
  %322 = sub i32 %316, %321
  %323 = mul i32 1, %322
  %324 = add i32 0, %323
  %325 = getelementptr %dimension_descriptor, %dimension_descriptor* %319, i32 0, i32 3
  %326 = load i32, i32* %325, align 4
  %327 = mul i32 1, %326
  %328 = getelementptr [2 x %dimension_descriptor], [2 x %dimension_descriptor]* %318, i32 0, i32 1
  %329 = getelementptr %dimension_descriptor, %dimension_descriptor* %328, i32 0, i32 1
  %330 = load i32, i32* %329, align 4
  %331 = sub i32 %317, %330
  %332 = mul i32 %327, %331
  %333 = add i32 %324, %332
  %334 = getelementptr %dimension_descriptor, %dimension_descriptor* %328, i32 0, i32 3
  %335 = load i32, i32* %334, align 4
  %336 = mul i32 %327, %335
  %337 = getelementptr %array.3, %array.3* %b, i32 0, i32 0
  %338 = load float*, float** %337, align 8
  %339 = getelementptr inbounds float, float* %338, i32 %333
  %340 = load float, float* %339, align 4
  %341 = fadd float %315, %340
  %342 = alloca %complex_4, align 8
  %343 = getelementptr %complex_4, %complex_4* %342, i32 0, i32 0
  %344 = getelementptr %complex_4, %complex_4* %342, i32 0, i32 1
  store float %341, float* %343, align 4
  store float 0.000000e+00, float* %344, align 4
  %345 = load %complex_4, %complex_4* %342, align 4
  store %complex_4 %345, %complex_4* %299, align 4
  br label %loop.head3

loop.end:                                         ; preds = %loop.head3
  br label %loop.head1

loop.end5:                                        ; preds = %loop.head1
  br label %loop.head

loop.end6:                                        ; preds = %loop.head
  %346 = load %array.1, %array.1* %c_copy, align 8
  %347 = getelementptr %array.1, %array.1* %c_copy, i32 0, i32 0
  %348 = load %complex_4*, %complex_4** %347, align 8
  %349 = alloca i8*, align 8
  %350 = bitcast %complex_4* %348 to i8*
  store i8* %350, i8** %349, align 8
  %351 = load i8*, i8** %349, align 8
  call void (i8*, ...) @_lfortran_free(i8* %351)
  %352 = getelementptr %array.1, %array.1* %c_copy, i32 0, i32 3
  store i1 false, i1* %352, align 1
  %353 = load %array.1, %array.1* %c_copy, align 8
  %354 = getelementptr %array.1, %array.1* %c_copy, i32 0, i32 3
  %355 = load i1, i1* %354, align 1
  br i1 %355, label %then, label %else

then:                                             ; preds = %loop.end6
  %356 = getelementptr %array.1, %array.1* %c_copy, i32 0, i32 0
  %357 = load %complex_4*, %complex_4** %356, align 8
  %358 = alloca i8*, align 8
  %359 = bitcast %complex_4* %357 to i8*
  store i8* %359, i8** %358, align 8
  %360 = load i8*, i8** %358, align 8
  call void (i8*, ...) @_lfortran_free(i8* %360)
  %361 = getelementptr %array.1, %array.1* %c_copy, i32 0, i32 3
  store i1 false, i1* %361, align 1
  br label %ifcont

else:                                             ; preds = %loop.end6
  br label %ifcont

ifcont:                                           ; preds = %else, %then
  %iftmp = phi i32 [ 1, %then ], [ 2, %else ]
  ret void
}

declare i8* @_lfortran_malloc(i32, ...)

declare void @_lfortran_free(i8*, ...)

define i32 @main() {
.entry:
  %a = alloca %array.2, align 8
  %b = alloca %array.3, align 8
  %c = alloca %array.1, align 8
  %i = alloca i32, align 4
  %ierr = alloca i32, align 4
  %j = alloca i32, align 4
  %k = alloca i32, align 4
  %n = alloca i32, align 4
  %r = alloca %complex_4, align 8
  store i32 10, i32* %n, align 4
  %0 = load i32, i32* %n, align 4
  %1 = add i32 %0, 5
  %2 = getelementptr %array.2, %array.2* %a, i32 0, i32 1
  store i32 0, i32* %2, align 4
  %3 = getelementptr %array.2, %array.2* %a, i32 0, i32 3
  store i1 true, i1* %3, align 1
  %4 = getelementptr %array.2, %array.2* %a, i32 0, i32 2
  %5 = getelementptr [1 x %dimension_descriptor], [1 x %dimension_descriptor]* %4, i32 0, i32 0
  %6 = getelementptr %dimension_descriptor, %dimension_descriptor* %5, i32 0, i32 0
  %7 = getelementptr %dimension_descriptor, %dimension_descriptor* %5, i32 0, i32 1
  %8 = getelementptr %dimension_descriptor, %dimension_descriptor* %5, i32 0, i32 2
  %9 = getelementptr %dimension_descriptor, %dimension_descriptor* %5, i32 0, i32 3
  store i32 1, i32* %6, align 4
  store i32 5, i32* %7, align 4
  store i32 %1, i32* %8, align 4
  %10 = load i32, i32* %8, align 4
  %11 = load i32, i32* %7, align 4
  %12 = sub i32 %10, %11
  %13 = add i32 %12, 1
  %14 = mul i32 1, %13
  store i32 %13, i32* %9, align 4
  %15 = getelementptr %array.2, %array.2* %a, i32 0, i32 0
  %16 = alloca i32, align 4
  %17 = mul i32 %14, 4
  store i32 %17, i32* %16, align 4
  %18 = load i32, i32* %16, align 4
  %19 = call i8* (i32, ...) @_lfortran_malloc(i32 %18)
  %20 = bitcast i8* %19 to i32*
  store i32* %20, i32** %15, align 8
  %21 = load i32, i32* %n, align 4
  %22 = load i32, i32* %n, align 4
  %23 = mul i32 2, %22
  %24 = load i32, i32* %n, align 4
  %25 = load i32, i32* %n, align 4
  %26 = mul i32 3, %25
  %27 = getelementptr %array.3, %array.3* %b, i32 0, i32 1
  store i32 0, i32* %27, align 4
  %28 = getelementptr %array.3, %array.3* %b, i32 0, i32 3
  store i1 true, i1* %28, align 1
  %29 = getelementptr %array.3, %array.3* %b, i32 0, i32 2
  %30 = getelementptr [2 x %dimension_descriptor], [2 x %dimension_descriptor]* %29, i32 0, i32 0
  %31 = getelementptr %dimension_descriptor, %dimension_descriptor* %30, i32 0, i32 0
  %32 = getelementptr %dimension_descriptor, %dimension_descriptor* %30, i32 0, i32 1
  %33 = getelementptr %dimension_descriptor, %dimension_descriptor* %30, i32 0, i32 2
  %34 = getelementptr %dimension_descriptor, %dimension_descriptor* %30, i32 0, i32 3
  store i32 1, i32* %31, align 4
  store i32 %21, i32* %32, align 4
  store i32 %23, i32* %33, align 4
  %35 = load i32, i32* %33, align 4
  %36 = load i32, i32* %32, align 4
  %37 = sub i32 %35, %36
  %38 = add i32 %37, 1
  %39 = mul i32 1, %38
  store i32 %38, i32* %34, align 4
  %40 = getelementptr [2 x %dimension_descriptor], [2 x %dimension_descriptor]* %29, i32 0, i32 1
  %41 = getelementptr %dimension_descriptor, %dimension_descriptor* %40, i32 0, i32 0
  %42 = getelementptr %dimension_descriptor, %dimension_descriptor* %40, i32 0, i32 1
  %43 = getelementptr %dimension_descriptor, %dimension_descriptor* %40, i32 0, i32 2
  %44 = getelementptr %dimension_descriptor, %dimension_descriptor* %40, i32 0, i32 3
  store i32 1, i32* %41, align 4
  store i32 %24, i32* %42, align 4
  store i32 %26, i32* %43, align 4
  %45 = load i32, i32* %43, align 4
  %46 = load i32, i32* %42, align 4
  %47 = sub i32 %45, %46
  %48 = add i32 %47, 1
  %49 = mul i32 %39, %48
  store i32 %48, i32* %44, align 4
  %50 = getelementptr %array.3, %array.3* %b, i32 0, i32 0
  %51 = alloca i32, align 4
  %52 = mul i32 %49, 4
  store i32 %52, i32* %51, align 4
  %53 = load i32, i32* %51, align 4
  %54 = call i8* (i32, ...) @_lfortran_malloc(i32 %53)
  %55 = bitcast i8* %54 to float*
  store float* %55, float** %50, align 8
  %56 = alloca %size_arg, align 8
  %57 = getelementptr %array.2, %array.2* %a, i32 0, i32 2
  %58 = getelementptr [1 x %dimension_descriptor], [1 x %dimension_descriptor]* %57, i32 0, i32 0
  %59 = getelementptr %size_arg, %size_arg* %56, i32 0, i32 0
  store %dimension_descriptor* %58, %dimension_descriptor** %59, align 8
  %60 = getelementptr %size_arg, %size_arg* %56, i32 0, i32 1
  store i32 1, i32* %60, align 4
  %61 = call i32 @__module_lfortran_intrinsic_array_size(%size_arg* %56)
  %62 = load i32, i32* %n, align 4
  %63 = add i32 %62, 1
  %64 = icmp ne i32 %61, %63
  br i1 %64, label %then, label %else

then:                                             ; preds = %.entry
  call void (i8*, ...) @_lfortran_printf(i8* getelementptr inbounds ([12 x i8], [12 x i8]* @0, i32 0, i32 0))
  call void @exit(i32 1)
  br label %ifcont

else:                                             ; preds = %.entry
  br label %ifcont

ifcont:                                           ; preds = %else, %then
  %iftmp = phi i32 [ 1, %then ], [ 2, %else ]
  %65 = alloca %size_arg, align 8
  %66 = getelementptr %array.3, %array.3* %b, i32 0, i32 2
  %67 = getelementptr [2 x %dimension_descriptor], [2 x %dimension_descriptor]* %66, i32 0, i32 0
  %68 = getelementptr %size_arg, %size_arg* %65, i32 0, i32 0
  store %dimension_descriptor* %67, %dimension_descriptor** %68, align 8
  %69 = getelementptr %size_arg, %size_arg* %65, i32 0, i32 1
  store i32 2, i32* %69, align 4
  %70 = call i32 @__module_lfortran_intrinsic_array_size(%size_arg* %65)
  %71 = load i32, i32* %n, align 4
  %72 = add i32 %71, 1
  %73 = load i32, i32* %n, align 4
  %74 = mul i32 2, %73
  %75 = add i32 %74, 1
  %76 = mul i32 %72, %75
  %77 = icmp ne i32 %70, %76
  br i1 %77, label %then1, label %else2

then1:                                            ; preds = %ifcont
  call void (i8*, ...) @_lfortran_printf(i8* getelementptr inbounds ([12 x i8], [12 x i8]* @1, i32 0, i32 0))
  call void @exit(i32 1)
  br label %ifcont3

else2:                                            ; preds = %ifcont
  br label %ifcont3

ifcont3:                                          ; preds = %else2, %then1
  %iftmp4 = phi i32 [ 1, %then1 ], [ 2, %else2 ]
  %78 = alloca %dimension_descriptor*, align 8
  %79 = getelementptr %array.2, %array.2* %a, i32 0, i32 2
  %80 = getelementptr [1 x %dimension_descriptor], [1 x %dimension_descriptor]* %79, i32 0, i32 0
  store %dimension_descriptor* %80, %dimension_descriptor** %78, align 8
  %81 = alloca i32, align 4
  store i32 1, i32* %81, align 4
  %82 = call i32 @__module_lfortran_intrinsic_array_lbound(%dimension_descriptor** %78, i32* %81)
  %83 = sub i32 %82, 1
  store i32 %83, i32* %i, align 4
  br label %loop.head

loop.head:                                        ; preds = %loop.body, %ifcont3
  %84 = load i32, i32* %i, align 4
  %85 = add i32 %84, 1
  %86 = alloca %dimension_descriptor*, align 8
  %87 = getelementptr %array.2, %array.2* %a, i32 0, i32 2
  %88 = getelementptr [1 x %dimension_descriptor], [1 x %dimension_descriptor]* %87, i32 0, i32 0
  store %dimension_descriptor* %88, %dimension_descriptor** %86, align 8
  %89 = alloca i32, align 4
  store i32 1, i32* %89, align 4
  %90 = call i32 @__module_lfortran_intrinsic_array_ubound(%dimension_descriptor** %86, i32* %89)
  %91 = icmp sle i32 %85, %90
  br i1 %91, label %loop.body, label %loop.end

loop.body:                                        ; preds = %loop.head
  %92 = load i32, i32* %i, align 4
  %93 = add i32 %92, 1
  store i32 %93, i32* %i, align 4
  %94 = load i32, i32* %i, align 4
  %95 = getelementptr %array.2, %array.2* %a, i32 0, i32 2
  %96 = getelementptr [1 x %dimension_descriptor], [1 x %dimension_descriptor]* %95, i32 0, i32 0
  %97 = getelementptr %dimension_descriptor, %dimension_descriptor* %96, i32 0, i32 1
  %98 = load i32, i32* %97, align 4
  %99 = sub i32 %94, %98
  %100 = mul i32 1, %99
  %101 = add i32 0, %100
  %102 = getelementptr %dimension_descriptor, %dimension_descriptor* %96, i32 0, i32 3
  %103 = load i32, i32* %102, align 4
  %104 = mul i32 1, %103
  %105 = getelementptr %array.2, %array.2* %a, i32 0, i32 0
  %106 = load i32*, i32** %105, align 8
  %107 = getelementptr inbounds i32, i32* %106, i32 %101
  %108 = load i32, i32* %i, align 4
  store i32 %108, i32* %107, align 4
  br label %loop.head

loop.end:                                         ; preds = %loop.head
  %109 = alloca %dimension_descriptor*, align 8
  %110 = getelementptr %array.3, %array.3* %b, i32 0, i32 2
  %111 = getelementptr [2 x %dimension_descriptor], [2 x %dimension_descriptor]* %110, i32 0, i32 0
  store %dimension_descriptor* %111, %dimension_descriptor** %109, align 8
  %112 = alloca i32, align 4
  store i32 1, i32* %112, align 4
  %113 = call i32 @__module_lfortran_intrinsic_array_lbound(%dimension_descriptor** %109, i32* %112)
  %114 = sub i32 %113, 1
  store i32 %114, i32* %i, align 4
  br label %loop.head5

loop.head5:                                       ; preds = %loop.end9, %loop.end
  %115 = load i32, i32* %i, align 4
  %116 = add i32 %115, 1
  %117 = alloca %dimension_descriptor*, align 8
  %118 = getelementptr %array.3, %array.3* %b, i32 0, i32 2
  %119 = getelementptr [2 x %dimension_descriptor], [2 x %dimension_descriptor]* %118, i32 0, i32 0
  store %dimension_descriptor* %119, %dimension_descriptor** %117, align 8
  %120 = alloca i32, align 4
  store i32 1, i32* %120, align 4
  %121 = call i32 @__module_lfortran_intrinsic_array_ubound(%dimension_descriptor** %117, i32* %120)
  %122 = icmp sle i32 %116, %121
  br i1 %122, label %loop.body6, label %loop.end10

loop.body6:                                       ; preds = %loop.head5
  %123 = load i32, i32* %i, align 4
  %124 = add i32 %123, 1
  store i32 %124, i32* %i, align 4
  %125 = alloca %dimension_descriptor*, align 8
  %126 = getelementptr %array.3, %array.3* %b, i32 0, i32 2
  %127 = getelementptr [2 x %dimension_descriptor], [2 x %dimension_descriptor]* %126, i32 0, i32 0
  store %dimension_descriptor* %127, %dimension_descriptor** %125, align 8
  %128 = alloca i32, align 4
  store i32 2, i32* %128, align 4
  %129 = call i32 @__module_lfortran_intrinsic_array_lbound(%dimension_descriptor** %125, i32* %128)
  %130 = sub i32 %129, 1
  store i32 %130, i32* %j, align 4
  br label %loop.head7

loop.head7:                                       ; preds = %loop.body8, %loop.body6
  %131 = load i32, i32* %j, align 4
  %132 = add i32 %131, 1
  %133 = alloca %dimension_descriptor*, align 8
  %134 = getelementptr %array.3, %array.3* %b, i32 0, i32 2
  %135 = getelementptr [2 x %dimension_descriptor], [2 x %dimension_descriptor]* %134, i32 0, i32 0
  store %dimension_descriptor* %135, %dimension_descriptor** %133, align 8
  %136 = alloca i32, align 4
  store i32 2, i32* %136, align 4
  %137 = call i32 @__module_lfortran_intrinsic_array_ubound(%dimension_descriptor** %133, i32* %136)
  %138 = icmp sle i32 %132, %137
  br i1 %138, label %loop.body8, label %loop.end9

loop.body8:                                       ; preds = %loop.head7
  %139 = load i32, i32* %j, align 4
  %140 = add i32 %139, 1
  store i32 %140, i32* %j, align 4
  %141 = load i32, i32* %i, align 4
  %142 = load i32, i32* %j, align 4
  %143 = getelementptr %array.3, %array.3* %b, i32 0, i32 2
  %144 = getelementptr [2 x %dimension_descriptor], [2 x %dimension_descriptor]* %143, i32 0, i32 0
  %145 = getelementptr %dimension_descriptor, %dimension_descriptor* %144, i32 0, i32 1
  %146 = load i32, i32* %145, align 4
  %147 = sub i32 %141, %146
  %148 = mul i32 1, %147
  %149 = add i32 0, %148
  %150 = getelementptr %dimension_descriptor, %dimension_descriptor* %144, i32 0, i32 3
  %151 = load i32, i32* %150, align 4
  %152 = mul i32 1, %151
  %153 = getelementptr [2 x %dimension_descriptor], [2 x %dimension_descriptor]* %143, i32 0, i32 1
  %154 = getelementptr %dimension_descriptor, %dimension_descriptor* %153, i32 0, i32 1
  %155 = load i32, i32* %154, align 4
  %156 = sub i32 %142, %155
  %157 = mul i32 %152, %156
  %158 = add i32 %149, %157
  %159 = getelementptr %dimension_descriptor, %dimension_descriptor* %153, i32 0, i32 3
  %160 = load i32, i32* %159, align 4
  %161 = mul i32 %152, %160
  %162 = getelementptr %array.3, %array.3* %b, i32 0, i32 0
  %163 = load float*, float** %162, align 8
  %164 = getelementptr inbounds float, float* %163, i32 %158
  %165 = load i32, i32* %i, align 4
  %166 = load i32, i32* %j, align 4
  %167 = add i32 %165, %166
  %168 = sitofp i32 %167 to float
  store float %168, float* %164, align 4
  br label %loop.head7

loop.end9:                                        ; preds = %loop.head7
  br label %loop.head5

loop.end10:                                       ; preds = %loop.head5
  %169 = load %array.1, %array.1* %c, align 8
  %170 = getelementptr %array.1, %array.1* %c, i32 0, i32 3
  %171 = load i1, i1* %170, align 1
  br i1 %171, label %then11, label %else12

then11:                                           ; preds = %loop.end10
  %172 = getelementptr %array.1, %array.1* %c, i32 0, i32 0
  %173 = load %complex_4*, %complex_4** %172, align 8
  %174 = alloca i8*, align 8
  %175 = bitcast %complex_4* %173 to i8*
  store i8* %175, i8** %174, align 8
  %176 = load i8*, i8** %174, align 8
  call void (i8*, ...) @_lfortran_free(i8* %176)
  %177 = getelementptr %array.1, %array.1* %c, i32 0, i32 3
  store i1 false, i1* %177, align 1
  br label %ifcont13

else12:                                           ; preds = %loop.end10
  br label %ifcont13

ifcont13:                                         ; preds = %else12, %then11
  %iftmp14 = phi i32 [ 1, %then11 ], [ 2, %else12 ]
  %178 = alloca %array.2, align 8
  %179 = alloca %array.3, align 8
  %180 = alloca %array.1, align 8
  call void @sum(%array.2* %a, %array.3* %b, %array.1* %c)
  %181 = alloca %dimension_descriptor*, align 8
  %182 = getelementptr %array.2, %array.2* %a, i32 0, i32 2
  %183 = getelementptr [1 x %dimension_descriptor], [1 x %dimension_descriptor]* %182, i32 0, i32 0
  store %dimension_descriptor* %183, %dimension_descriptor** %181, align 8
  %184 = alloca i32, align 4
  store i32 1, i32* %184, align 4
  %185 = call i32 @__module_lfortran_intrinsic_array_lbound(%dimension_descriptor** %181, i32* %184)
  %186 = sub i32 %185, 1
  store i32 %186, i32* %i, align 4
  br label %loop.head15

loop.head15:                                      ; preds = %ifcont19, %ifcont13
  %187 = load i32, i32* %i, align 4
  %188 = add i32 %187, 1
  %189 = alloca %dimension_descriptor*, align 8
  %190 = getelementptr %array.2, %array.2* %a, i32 0, i32 2
  %191 = getelementptr [1 x %dimension_descriptor], [1 x %dimension_descriptor]* %190, i32 0, i32 0
  store %dimension_descriptor* %191, %dimension_descriptor** %189, align 8
  %192 = alloca i32, align 4
  store i32 1, i32* %192, align 4
  %193 = call i32 @__module_lfortran_intrinsic_array_ubound(%dimension_descriptor** %189, i32* %192)
  %194 = icmp sle i32 %188, %193
  br i1 %194, label %loop.body16, label %loop.end21

loop.body16:                                      ; preds = %loop.head15
  %195 = load i32, i32* %i, align 4
  %196 = add i32 %195, 1
  store i32 %196, i32* %i, align 4
  %197 = load i32, i32* %i, align 4
  %198 = getelementptr %array.2, %array.2* %a, i32 0, i32 2
  %199 = getelementptr [1 x %dimension_descriptor], [1 x %dimension_descriptor]* %198, i32 0, i32 0
  %200 = getelementptr %dimension_descriptor, %dimension_descriptor* %199, i32 0, i32 1
  %201 = load i32, i32* %200, align 4
  %202 = sub i32 %197, %201
  %203 = mul i32 1, %202
  %204 = add i32 0, %203
  %205 = getelementptr %dimension_descriptor, %dimension_descriptor* %199, i32 0, i32 3
  %206 = load i32, i32* %205, align 4
  %207 = mul i32 1, %206
  %208 = getelementptr %array.2, %array.2* %a, i32 0, i32 0
  %209 = load i32*, i32** %208, align 8
  %210 = getelementptr inbounds i32, i32* %209, i32 %204
  %211 = load i32, i32* %210, align 4
  %212 = load i32, i32* %i, align 4
  %213 = icmp ne i32 %211, %212
  br i1 %213, label %then17, label %else18

then17:                                           ; preds = %loop.body16
  call void (i8*, ...) @_lfortran_printf(i8* getelementptr inbounds ([12 x i8], [12 x i8]* @2, i32 0, i32 0))
  call void @exit(i32 1)
  br label %ifcont19

else18:                                           ; preds = %loop.body16
  br label %ifcont19

ifcont19:                                         ; preds = %else18, %then17
  %iftmp20 = phi i32 [ 1, %then17 ], [ 2, %else18 ]
  br label %loop.head15

loop.end21:                                       ; preds = %loop.head15
  %214 = alloca %dimension_descriptor*, align 8
  %215 = getelementptr %array.3, %array.3* %b, i32 0, i32 2
  %216 = getelementptr [2 x %dimension_descriptor], [2 x %dimension_descriptor]* %215, i32 0, i32 0
  store %dimension_descriptor* %216, %dimension_descriptor** %214, align 8
  %217 = alloca i32, align 4
  store i32 1, i32* %217, align 4
  %218 = call i32 @__module_lfortran_intrinsic_array_lbound(%dimension_descriptor** %214, i32* %217)
  %219 = sub i32 %218, 1
  store i32 %219, i32* %i, align 4
  br label %loop.head22

loop.head22:                                      ; preds = %loop.end30, %loop.end21
  %220 = load i32, i32* %i, align 4
  %221 = add i32 %220, 1
  %222 = alloca %dimension_descriptor*, align 8
  %223 = getelementptr %array.3, %array.3* %b, i32 0, i32 2
  %224 = getelementptr [2 x %dimension_descriptor], [2 x %dimension_descriptor]* %223, i32 0, i32 0
  store %dimension_descriptor* %224, %dimension_descriptor** %222, align 8
  %225 = alloca i32, align 4
  store i32 1, i32* %225, align 4
  %226 = call i32 @__module_lfortran_intrinsic_array_ubound(%dimension_descriptor** %222, i32* %225)
  %227 = icmp sle i32 %221, %226
  br i1 %227, label %loop.body23, label %loop.end31

loop.body23:                                      ; preds = %loop.head22
  %228 = load i32, i32* %i, align 4
  %229 = add i32 %228, 1
  store i32 %229, i32* %i, align 4
  %230 = alloca %dimension_descriptor*, align 8
  %231 = getelementptr %array.3, %array.3* %b, i32 0, i32 2
  %232 = getelementptr [2 x %dimension_descriptor], [2 x %dimension_descriptor]* %231, i32 0, i32 0
  store %dimension_descriptor* %232, %dimension_descriptor** %230, align 8
  %233 = alloca i32, align 4
  store i32 2, i32* %233, align 4
  %234 = call i32 @__module_lfortran_intrinsic_array_lbound(%dimension_descriptor** %230, i32* %233)
  %235 = sub i32 %234, 1
  store i32 %235, i32* %j, align 4
  br label %loop.head24

loop.head24:                                      ; preds = %ifcont28, %loop.body23
  %236 = load i32, i32* %j, align 4
  %237 = add i32 %236, 1
  %238 = alloca %dimension_descriptor*, align 8
  %239 = getelementptr %array.3, %array.3* %b, i32 0, i32 2
  %240 = getelementptr [2 x %dimension_descriptor], [2 x %dimension_descriptor]* %239, i32 0, i32 0
  store %dimension_descriptor* %240, %dimension_descriptor** %238, align 8
  %241 = alloca i32, align 4
  store i32 2, i32* %241, align 4
  %242 = call i32 @__module_lfortran_intrinsic_array_ubound(%dimension_descriptor** %238, i32* %241)
  %243 = icmp sle i32 %237, %242
  br i1 %243, label %loop.body25, label %loop.end30

loop.body25:                                      ; preds = %loop.head24
  %244 = load i32, i32* %j, align 4
  %245 = add i32 %244, 1
  store i32 %245, i32* %j, align 4
  %246 = load i32, i32* %i, align 4
  %247 = load i32, i32* %j, align 4
  %248 = getelementptr %array.3, %array.3* %b, i32 0, i32 2
  %249 = getelementptr [2 x %dimension_descriptor], [2 x %dimension_descriptor]* %248, i32 0, i32 0
  %250 = getelementptr %dimension_descriptor, %dimension_descriptor* %249, i32 0, i32 1
  %251 = load i32, i32* %250, align 4
  %252 = sub i32 %246, %251
  %253 = mul i32 1, %252
  %254 = add i32 0, %253
  %255 = getelementptr %dimension_descriptor, %dimension_descriptor* %249, i32 0, i32 3
  %256 = load i32, i32* %255, align 4
  %257 = mul i32 1, %256
  %258 = getelementptr [2 x %dimension_descriptor], [2 x %dimension_descriptor]* %248, i32 0, i32 1
  %259 = getelementptr %dimension_descriptor, %dimension_descriptor* %258, i32 0, i32 1
  %260 = load i32, i32* %259, align 4
  %261 = sub i32 %247, %260
  %262 = mul i32 %257, %261
  %263 = add i32 %254, %262
  %264 = getelementptr %dimension_descriptor, %dimension_descriptor* %258, i32 0, i32 3
  %265 = load i32, i32* %264, align 4
  %266 = mul i32 %257, %265
  %267 = getelementptr %array.3, %array.3* %b, i32 0, i32 0
  %268 = load float*, float** %267, align 8
  %269 = getelementptr inbounds float, float* %268, i32 %263
  %270 = load float, float* %269, align 4
  %271 = load i32, i32* %i, align 4
  %272 = load i32, i32* %j, align 4
  %273 = add i32 %271, %272
  %274 = sitofp i32 %273 to float
  %275 = fcmp une float %270, %274
  br i1 %275, label %then26, label %else27

then26:                                           ; preds = %loop.body25
  call void (i8*, ...) @_lfortran_printf(i8* getelementptr inbounds ([12 x i8], [12 x i8]* @3, i32 0, i32 0))
  call void @exit(i32 1)
  br label %ifcont28

else27:                                           ; preds = %loop.body25
  br label %ifcont28

ifcont28:                                         ; preds = %else27, %then26
  %iftmp29 = phi i32 [ 1, %then26 ], [ 2, %else27 ]
  br label %loop.head24

loop.end30:                                       ; preds = %loop.head24
  br label %loop.head22

loop.end31:                                       ; preds = %loop.head22
  %276 = alloca %dimension_descriptor*, align 8
  %277 = getelementptr %array.1, %array.1* %c, i32 0, i32 2
  %278 = getelementptr [3 x %dimension_descriptor], [3 x %dimension_descriptor]* %277, i32 0, i32 0
  store %dimension_descriptor* %278, %dimension_descriptor** %276, align 8
  %279 = alloca i32, align 4
  store i32 1, i32* %279, align 4
  %280 = call i32 @__module_lfortran_intrinsic_array_lbound(%dimension_descriptor** %276, i32* %279)
  %281 = sub i32 %280, 1
  store i32 %281, i32* %i, align 4
  br label %loop.head32

loop.head32:                                      ; preds = %loop.end43, %loop.end31
  %282 = load i32, i32* %i, align 4
  %283 = add i32 %282, 1
  %284 = alloca %dimension_descriptor*, align 8
  %285 = getelementptr %array.1, %array.1* %c, i32 0, i32 2
  %286 = getelementptr [3 x %dimension_descriptor], [3 x %dimension_descriptor]* %285, i32 0, i32 0
  store %dimension_descriptor* %286, %dimension_descriptor** %284, align 8
  %287 = alloca i32, align 4
  store i32 1, i32* %287, align 4
  %288 = call i32 @__module_lfortran_intrinsic_array_ubound(%dimension_descriptor** %284, i32* %287)
  %289 = icmp sle i32 %283, %288
  br i1 %289, label %loop.body33, label %loop.end44

loop.body33:                                      ; preds = %loop.head32
  %290 = load i32, i32* %i, align 4
  %291 = add i32 %290, 1
  store i32 %291, i32* %i, align 4
  %292 = alloca %dimension_descriptor*, align 8
  %293 = getelementptr %array.1, %array.1* %c, i32 0, i32 2
  %294 = getelementptr [3 x %dimension_descriptor], [3 x %dimension_descriptor]* %293, i32 0, i32 0
  store %dimension_descriptor* %294, %dimension_descriptor** %292, align 8
  %295 = alloca i32, align 4
  store i32 2, i32* %295, align 4
  %296 = call i32 @__module_lfortran_intrinsic_array_lbound(%dimension_descriptor** %292, i32* %295)
  %297 = sub i32 %296, 1
  store i32 %297, i32* %j, align 4
  br label %loop.head34

loop.head34:                                      ; preds = %loop.end42, %loop.body33
  %298 = load i32, i32* %j, align 4
  %299 = add i32 %298, 1
  %300 = alloca %dimension_descriptor*, align 8
  %301 = getelementptr %array.1, %array.1* %c, i32 0, i32 2
  %302 = getelementptr [3 x %dimension_descriptor], [3 x %dimension_descriptor]* %301, i32 0, i32 0
  store %dimension_descriptor* %302, %dimension_descriptor** %300, align 8
  %303 = alloca i32, align 4
  store i32 2, i32* %303, align 4
  %304 = call i32 @__module_lfortran_intrinsic_array_ubound(%dimension_descriptor** %300, i32* %303)
  %305 = icmp sle i32 %299, %304
  br i1 %305, label %loop.body35, label %loop.end43

loop.body35:                                      ; preds = %loop.head34
  %306 = load i32, i32* %j, align 4
  %307 = add i32 %306, 1
  store i32 %307, i32* %j, align 4
  %308 = alloca %dimension_descriptor*, align 8
  %309 = getelementptr %array.1, %array.1* %c, i32 0, i32 2
  %310 = getelementptr [3 x %dimension_descriptor], [3 x %dimension_descriptor]* %309, i32 0, i32 0
  store %dimension_descriptor* %310, %dimension_descriptor** %308, align 8
  %311 = alloca i32, align 4
  store i32 3, i32* %311, align 4
  %312 = call i32 @__module_lfortran_intrinsic_array_lbound(%dimension_descriptor** %308, i32* %311)
  %313 = sub i32 %312, 1
  store i32 %313, i32* %k, align 4
  br label %loop.head36

loop.head36:                                      ; preds = %ifcont40, %loop.body35
  %314 = load i32, i32* %k, align 4
  %315 = add i32 %314, 1
  %316 = alloca %dimension_descriptor*, align 8
  %317 = getelementptr %array.1, %array.1* %c, i32 0, i32 2
  %318 = getelementptr [3 x %dimension_descriptor], [3 x %dimension_descriptor]* %317, i32 0, i32 0
  store %dimension_descriptor* %318, %dimension_descriptor** %316, align 8
  %319 = alloca i32, align 4
  store i32 3, i32* %319, align 4
  %320 = call i32 @__module_lfortran_intrinsic_array_ubound(%dimension_descriptor** %316, i32* %319)
  %321 = icmp sle i32 %315, %320
  br i1 %321, label %loop.body37, label %loop.end42

loop.body37:                                      ; preds = %loop.head36
  %322 = load i32, i32* %k, align 4
  %323 = add i32 %322, 1
  store i32 %323, i32* %k, align 4
  %324 = load i32, i32* %i, align 4
  %325 = load i32, i32* %j, align 4
  %326 = load i32, i32* %k, align 4
  %327 = getelementptr %array.1, %array.1* %c, i32 0, i32 2
  %328 = getelementptr [3 x %dimension_descriptor], [3 x %dimension_descriptor]* %327, i32 0, i32 0
  %329 = getelementptr %dimension_descriptor, %dimension_descriptor* %328, i32 0, i32 1
  %330 = load i32, i32* %329, align 4
  %331 = sub i32 %324, %330
  %332 = mul i32 1, %331
  %333 = add i32 0, %332
  %334 = getelementptr %dimension_descriptor, %dimension_descriptor* %328, i32 0, i32 3
  %335 = load i32, i32* %334, align 4
  %336 = mul i32 1, %335
  %337 = getelementptr [3 x %dimension_descriptor], [3 x %dimension_descriptor]* %327, i32 0, i32 1
  %338 = getelementptr %dimension_descriptor, %dimension_descriptor* %337, i32 0, i32 1
  %339 = load i32, i32* %338, align 4
  %340 = sub i32 %325, %339
  %341 = mul i32 %336, %340
  %342 = add i32 %333, %341
  %343 = getelementptr %dimension_descriptor, %dimension_descriptor* %337, i32 0, i32 3
  %344 = load i32, i32* %343, align 4
  %345 = mul i32 %336, %344
  %346 = getelementptr [3 x %dimension_descriptor], [3 x %dimension_descriptor]* %327, i32 0, i32 2
  %347 = getelementptr %dimension_descriptor, %dimension_descriptor* %346, i32 0, i32 1
  %348 = load i32, i32* %347, align 4
  %349 = sub i32 %326, %348
  %350 = mul i32 %345, %349
  %351 = add i32 %342, %350
  %352 = getelementptr %dimension_descriptor, %dimension_descriptor* %346, i32 0, i32 3
  %353 = load i32, i32* %352, align 4
  %354 = mul i32 %345, %353
  %355 = getelementptr %array.1, %array.1* %c, i32 0, i32 0
  %356 = load %complex_4*, %complex_4** %355, align 8
  %357 = getelementptr inbounds %complex_4, %complex_4* %356, i32 %351
  %358 = load %complex_4, %complex_4* %357, align 4
  %359 = load i32, i32* %i, align 4
  %360 = load i32, i32* %j, align 4
  %361 = add i32 %359, %360
  %362 = load i32, i32* %k, align 4
  %363 = add i32 %361, %362
  %364 = sitofp i32 %363 to float
  %365 = alloca %complex_4, align 8
  %366 = getelementptr %complex_4, %complex_4* %365, i32 0, i32 0
  %367 = getelementptr %complex_4, %complex_4* %365, i32 0, i32 1
  store float %364, float* %366, align 4
  store float 0.000000e+00, float* %367, align 4
  %368 = load %complex_4, %complex_4* %365, align 4
  %369 = alloca %complex_4, align 8
  store %complex_4 %358, %complex_4* %369, align 4
  %370 = getelementptr %complex_4, %complex_4* %369, i32 0, i32 0
  %371 = load float, float* %370, align 4
  %372 = alloca %complex_4, align 8
  store %complex_4 %368, %complex_4* %372, align 4
  %373 = getelementptr %complex_4, %complex_4* %372, i32 0, i32 0
  %374 = load float, float* %373, align 4
  %375 = alloca %complex_4, align 8
  store %complex_4 %358, %complex_4* %375, align 4
  %376 = getelementptr %complex_4, %complex_4* %375, i32 0, i32 1
  %377 = load float, float* %376, align 4
  %378 = alloca %complex_4, align 8
  store %complex_4 %368, %complex_4* %378, align 4
  %379 = getelementptr %complex_4, %complex_4* %378, i32 0, i32 1
  %380 = load float, float* %379, align 4
  %381 = fcmp une float %371, %374
  %382 = fcmp une float %377, %380
  %383 = and i1 %381, %382
  br i1 %383, label %then38, label %else39

then38:                                           ; preds = %loop.body37
  call void (i8*, ...) @_lfortran_printf(i8* getelementptr inbounds ([12 x i8], [12 x i8]* @4, i32 0, i32 0))
  call void @exit(i32 1)
  br label %ifcont40

else39:                                           ; preds = %loop.body37
  br label %ifcont40

ifcont40:                                         ; preds = %else39, %then38
  %iftmp41 = phi i32 [ 1, %then38 ], [ 2, %else39 ]
  br label %loop.head36

loop.end42:                                       ; preds = %loop.head36
  br label %loop.head34

loop.end43:                                       ; preds = %loop.head34
  br label %loop.head32

loop.end44:                                       ; preds = %loop.head32
  %384 = alloca %array.1, align 8
  %385 = call %complex_4 @reduce_sum(%array.1* %c)
  store %complex_4 %385, %complex_4* %r, align 4
  %386 = load %complex_4, %complex_4* %r, align 4
  %387 = alloca %complex_4, align 8
  %388 = getelementptr %complex_4, %complex_4* %387, i32 0, i32 0
  %389 = getelementptr %complex_4, %complex_4* %387, i32 0, i32 1
  store float 1.143450e+05, float* %388, align 4
  store float 0.000000e+00, float* %389, align 4
  %390 = load %complex_4, %complex_4* %387, align 4
  %391 = alloca %complex_4, align 8
  store %complex_4 %386, %complex_4* %391, align 4
  %392 = getelementptr %complex_4, %complex_4* %391, i32 0, i32 0
  %393 = load float, float* %392, align 4
  %394 = alloca %complex_4, align 8
  store %complex_4 %390, %complex_4* %394, align 4
  %395 = getelementptr %complex_4, %complex_4* %394, i32 0, i32 0
  %396 = load float, float* %395, align 4
  %397 = alloca %complex_4, align 8
  store %complex_4 %386, %complex_4* %397, align 4
  %398 = getelementptr %complex_4, %complex_4* %397, i32 0, i32 1
  %399 = load float, float* %398, align 4
  %400 = alloca %complex_4, align 8
  store %complex_4 %390, %complex_4* %400, align 4
  %401 = getelementptr %complex_4, %complex_4* %400, i32 0, i32 1
  %402 = load float, float* %401, align 4
  %403 = fcmp une float %393, %396
  %404 = fcmp une float %399, %402
  %405 = and i1 %403, %404
  br i1 %405, label %then45, label %else46

then45:                                           ; preds = %loop.end44
  call void (i8*, ...) @_lfortran_printf(i8* getelementptr inbounds ([12 x i8], [12 x i8]* @5, i32 0, i32 0))
  call void @exit(i32 1)
  br label %ifcont47

else46:                                           ; preds = %loop.end44
  br label %ifcont47

ifcont47:                                         ; preds = %else46, %then45
  %iftmp48 = phi i32 [ 1, %then45 ], [ 2, %else46 ]
  %406 = load %array.2, %array.2* %a, align 8
  %407 = getelementptr %array.2, %array.2* %a, i32 0, i32 3
  %408 = load i1, i1* %407, align 1
  br i1 %408, label %then49, label %else50

then49:                                           ; preds = %ifcont47
  %409 = getelementptr %array.2, %array.2* %a, i32 0, i32 0
  %410 = load i32*, i32** %409, align 8
  %411 = alloca i8*, align 8
  %412 = bitcast i32* %410 to i8*
  store i8* %412, i8** %411, align 8
  %413 = load i8*, i8** %411, align 8
  call void (i8*, ...) @_lfortran_free(i8* %413)
  %414 = getelementptr %array.2, %array.2* %a, i32 0, i32 3
  store i1 false, i1* %414, align 1
  br label %ifcont51

else50:                                           ; preds = %ifcont47
  br label %ifcont51

ifcont51:                                         ; preds = %else50, %then49
  %iftmp52 = phi i32 [ 1, %then49 ], [ 2, %else50 ]
  %415 = load %array.3, %array.3* %b, align 8
  %416 = getelementptr %array.3, %array.3* %b, i32 0, i32 3
  %417 = load i1, i1* %416, align 1
  br i1 %417, label %then53, label %else54

then53:                                           ; preds = %ifcont51
  %418 = getelementptr %array.3, %array.3* %b, i32 0, i32 0
  %419 = load float*, float** %418, align 8
  %420 = alloca i8*, align 8
  %421 = bitcast float* %419 to i8*
  store i8* %421, i8** %420, align 8
  %422 = load i8*, i8** %420, align 8
  call void (i8*, ...) @_lfortran_free(i8* %422)
  %423 = getelementptr %array.3, %array.3* %b, i32 0, i32 3
  store i1 false, i1* %423, align 1
  br label %ifcont55

else54:                                           ; preds = %ifcont51
  br label %ifcont55

ifcont55:                                         ; preds = %else54, %then53
  %iftmp56 = phi i32 [ 1, %then53 ], [ 2, %else54 ]
  %424 = load %array.1, %array.1* %c, align 8
  %425 = getelementptr %array.1, %array.1* %c, i32 0, i32 3
  %426 = load i1, i1* %425, align 1
  br i1 %426, label %then57, label %else58

then57:                                           ; preds = %ifcont55
  %427 = getelementptr %array.1, %array.1* %c, i32 0, i32 0
  %428 = load %complex_4*, %complex_4** %427, align 8
  %429 = alloca i8*, align 8
  %430 = bitcast %complex_4* %428 to i8*
  store i8* %430, i8** %429, align 8
  %431 = load i8*, i8** %429, align 8
  call void (i8*, ...) @_lfortran_free(i8* %431)
  %432 = getelementptr %array.1, %array.1* %c, i32 0, i32 3
  store i1 false, i1* %432, align 1
  br label %ifcont59

else58:                                           ; preds = %ifcont55
  br label %ifcont59

ifcont59:                                         ; preds = %else58, %then57
  %iftmp60 = phi i32 [ 1, %then57 ], [ 2, %else58 ]
  ret i32 0
}

declare void @_lfortran_printf(i8*, ...)

declare void @exit(i32)

