{
    "basename": "llvm-types_05-36b42c5",
    "cmd": "lfortran --show-llvm {infile} -o {outfile}",
    "infile": "tests/../integration_tests/types_05.f90",
    "infile_hash": "96f8e950abafbc42b9d0438efdca0a8355bb2bd7b4b168ee23063521",
    "outfile": null,
    "outfile_hash": null,
    "stdout": "llvm-types_05-36b42c5.stdout",
    "stdout_hash": "4cacfa6793e5bc7d31f9f6077fb007a9b4978b02ed3135c24f49271f",
    "stderr": null,
    "stderr_hash": null,
    "returncode": 0
}