{
    "basename": "llvm-intrinsics_04-a26f62c",
    "cmd": "lfortran --show-llvm {infile} -o {outfile}",
    "infile": "tests/../integration_tests/intrinsics_04.f90",
    "infile_hash": "e95a117d6bed3b82021acbe884a3fe41b77347785a619d231e54b9c7",
    "outfile": null,
    "outfile_hash": null,
    "stdout": "llvm-intrinsics_04-a26f62c.stdout",
    "stdout_hash": "c08364f3036782d78fd0e141595fddf9395756bd159d22d26577e7b2",
    "stderr": null,
    "stderr_hash": null,
    "returncode": 0
}