{
    "basename": "llvm-global_scope6-27d1089",
    "cmd": "lfortran --show-llvm {infile} -o {outfile}",
    "infile": "tests/global_scope6.f90",
    "infile_hash": "3f2dfa122b78175565b7baa8f4d0417cfb0ed5bbe26bbb5f0f1f6f2e",
    "outfile": null,
    "outfile_hash": null,
    "stdout": "llvm-global_scope6-27d1089.stdout",
    "stdout_hash": "b1ca5d6e2ac87f3b80871c5c03ccf4ad3fd3336c65c6dcec2d26664e",
    "stderr": null,
    "stderr_hash": null,
    "returncode": 0
}