; ModuleID = 'LFortran'
source_filename = "LFortran"

@0 = private unnamed_addr constant [10 x i8] c"calling b\00", align 1
@1 = private unnamed_addr constant [4 x i8] c"%s\0A\00", align 1
@2 = private unnamed_addr constant [4 x i8] c"%d\0A\00", align 1
@3 = private unnamed_addr constant [4 x i8] c"%d\0A\00", align 1
@4 = private unnamed_addr constant [4 x i8] c"%d\0A\00", align 1
@5 = private unnamed_addr constant [4 x i8] c"%d\0A\00", align 1

define i32 @__module_many_returns_b(i32* %a) {
.entry:
  %b = alloca i32, align 4
  %e = alloca i32, align 4
  call void (i8*, ...) @_lfortran_printf(i8* getelementptr inbounds ([4 x i8], [4 x i8]* @1, i32 0, i32 0), i8* getelementptr inbounds ([10 x i8], [10 x i8]* @0, i32 0, i32 0))
  %0 = call i32 @__module_many_returns_d(i32* %a)
  store i32 %0, i32* %b, align 4
  %1 = load i32, i32* %b, align 4
  ret i32 %1
}

define i32 @__module_many_returns_d(i32* %i) {
.entry:
  %d = alloca i32, align 4
  %0 = load i32, i32* %i, align 4
  %1 = icmp eq i32 %0, 1
  br i1 %1, label %then, label %else

then:                                             ; preds = %.entry
  store i32 1, i32* %d, align 4
  br label %return

return:                                           ; preds = %ifcont6, %then4, %then1, %then
  %2 = load i32, i32* %d, align 4
  ret i32 %2

else:                                             ; preds = %.entry
  br label %ifcont

ifcont:                                           ; preds = %else
  %3 = load i32, i32* %i, align 4
  %4 = icmp eq i32 %3, 2
  br i1 %4, label %then1, label %else2

then1:                                            ; preds = %ifcont
  store i32 2, i32* %d, align 4
  br label %return

else2:                                            ; preds = %ifcont
  br label %ifcont3

ifcont3:                                          ; preds = %else2
  %5 = load i32, i32* %i, align 4
  %6 = icmp eq i32 %5, 3
  br i1 %6, label %then4, label %else5

then4:                                            ; preds = %ifcont3
  store i32 3, i32* %d, align 4
  br label %return

else5:                                            ; preds = %ifcont3
  br label %ifcont6

ifcont6:                                          ; preds = %else5
  store i32 999, i32* %d, align 4
  br label %return
}

declare void @_lfortran_printf(i8*, ...)

define i32 @main() {
.entry:
  %c = alloca i32, align 4
  %0 = alloca i32, align 4
  store i32 1, i32* %0, align 4
  %1 = call i32 @__module_many_returns_b(i32* %0)
  store i32 %1, i32* %c, align 4
  %2 = load i32, i32* %c, align 4
  call void (i8*, ...) @_lfortran_printf(i8* getelementptr inbounds ([4 x i8], [4 x i8]* @2, i32 0, i32 0), i32 %2)
  %3 = alloca i32, align 4
  store i32 2, i32* %3, align 4
  %4 = call i32 @__module_many_returns_b(i32* %3)
  store i32 %4, i32* %c, align 4
  %5 = load i32, i32* %c, align 4
  call void (i8*, ...) @_lfortran_printf(i8* getelementptr inbounds ([4 x i8], [4 x i8]* @3, i32 0, i32 0), i32 %5)
  %6 = alloca i32, align 4
  store i32 3, i32* %6, align 4
  %7 = call i32 @__module_many_returns_b(i32* %6)
  store i32 %7, i32* %c, align 4
  %8 = load i32, i32* %c, align 4
  call void (i8*, ...) @_lfortran_printf(i8* getelementptr inbounds ([4 x i8], [4 x i8]* @4, i32 0, i32 0), i32 %8)
  %9 = alloca i32, align 4
  store i32 4, i32* %9, align 4
  %10 = call i32 @__module_many_returns_b(i32* %9)
  store i32 %10, i32* %c, align 4
  %11 = load i32, i32* %c, align 4
  call void (i8*, ...) @_lfortran_printf(i8* getelementptr inbounds ([4 x i8], [4 x i8]* @5, i32 0, i32 0), i32 %11)
  ret i32 0
}

