{
    "basename": "llvm-arrays_04_func-8d7edb9",
    "cmd": "lfortran --show-llvm {infile} -o {outfile}",
    "infile": "tests/../integration_tests/arrays_04_func.f90",
    "infile_hash": "50eb699e803e7dace8da286ee49cdb7381ebe3141bff17ca374f1f02",
    "outfile": null,
    "outfile_hash": null,
    "stdout": "llvm-arrays_04_func-8d7edb9.stdout",
    "stdout_hash": "ec847b5f59ad7cc8659b37a47c24ea012b6522ee06f5145c88dbf7fd",
    "stderr": null,
    "stderr_hash": null,
    "returncode": 0
}