{
    "basename": "llvm-arrays_op_4-ed7806a",
    "cmd": "lfortran --show-llvm {infile} -o {outfile}",
    "infile": "tests/../integration_tests/arrays_op_4.f90",
    "infile_hash": "217baeb5f0a4438c9af1044fbcb9991796f27fdc7f8cb69be5213c8f",
    "outfile": null,
    "outfile_hash": null,
    "stdout": "llvm-arrays_op_4-ed7806a.stdout",
    "stdout_hash": "c6876bf42961173b1d06a7659e548f0ba82b435d908b5d47fc9a3aaf",
    "stderr": null,
    "stderr_hash": null,
    "returncode": 0
}