{
    "basename": "llvm-allocate_01-2c950aa",
    "cmd": "lfortran --show-llvm {infile} -o {outfile}",
    "infile": "tests/../integration_tests/allocate_01.f90",
    "infile_hash": "ef98787e1f184832505d9855b991d0de67a08ced61dbdf1dd82570ba",
    "outfile": null,
    "outfile_hash": null,
    "stdout": "llvm-allocate_01-2c950aa.stdout",
    "stdout_hash": "1600a5b686c90d99eafc417225468c860ba3c6a215bc186bf81126b7",
    "stderr": null,
    "stderr_hash": null,
    "returncode": 0
}