{
    "basename": "llvm-arrays_01_size-1dd2d70",
    "cmd": "lfortran --show-llvm {infile} -o {outfile}",
    "infile": "tests/../integration_tests/arrays_01_size.f90",
    "infile_hash": "f104a59140319e5b27a82ce4a6ced812029107c364455652cd7ee3dd",
    "outfile": null,
    "outfile_hash": null,
    "stdout": "llvm-arrays_01_size-1dd2d70.stdout",
    "stdout_hash": "a75778d39b95bb5e442c188503c525be3ceacad708230eb6e4f3337f",
    "stderr": null,
    "stderr_hash": null,
    "returncode": 0
}