; ModuleID = 'LFortran'
source_filename = "LFortran"

define float @f() {
.entry:
  %f1 = alloca float, align 4
  %f2 = alloca float, align 4
  %f3 = alloca float, align 4
  %f4 = alloca float, align 4
  %f5 = alloca float, align 4
  %f6 = alloca float, align 4
  store float 5.000000e+00, float* %f1, align 4
  store float 8.000000e+00, float* %f2, align 4
  store float 1.600000e+01, float* %f3, align 4
  store float 1.100000e+01, float* %f4, align 4
  store float 2.000000e+00, float* %f5, align 4
  store float 6.400000e+01, float* %f6, align 4
  %0 = load float, float* %f6, align 4
  ret float %0
}

