{
    "basename": "llvm-logical1-419ed6c",
    "cmd": "lfortran --show-llvm {infile} -o {outfile}",
    "infile": "tests/../integration_tests/logical1.f90",
    "infile_hash": "d0f4b064d238380619d6802ebc84c91c684869a8ffb6d4fc807bf2d9",
    "outfile": null,
    "outfile_hash": null,
    "stdout": "llvm-logical1-419ed6c.stdout",
    "stdout_hash": "368475bc18739f8af94a37d6b42fea5d47ce35a721e6cfc439a7d10d",
    "stderr": null,
    "stderr_hash": null,
    "returncode": 0
}