; ModuleID = 'LFortran'
source_filename = "LFortran"

@0 = private unnamed_addr constant [12 x i8] c"%f %lf %lf\0A\00", align 1

define i32 @main() {
.entry:
  %prec1 = alloca i32, align 4
  store i32 4, i32* %prec1, align 4
  %prec2 = alloca i32, align 4
  store i32 8, i32* %prec2, align 4
  %u = alloca float, align 4
  store float 0x3FF0CCCCC0000000, float* %u, align 4
  %v = alloca double, align 8
  store double 1.050000e+00, double* %v, align 8
  %zero = alloca double, align 8
  store double 0.000000e+00, double* %zero, align 8
  %0 = load float, float* %u, align 4
  %1 = fpext float %0 to double
  %2 = load double, double* %v, align 8
  %3 = load double, double* %zero, align 8
  call void (i8*, ...) @_lfortran_printf(i8* getelementptr inbounds ([12 x i8], [12 x i8]* @0, i32 0, i32 0), double %1, double %2, double %3)
  ret i32 0
}

declare void @_lfortran_printf(i8*, ...)

