; ModuleID = 'LFortran'
source_filename = "LFortran"

@0 = private unnamed_addr constant [5 x i8] c"Dr. \00", align 1
@1 = private unnamed_addr constant [4 x i8] c"%s\0A\00", align 1
@2 = private unnamed_addr constant [8 x i8] c"Fortran\00", align 1
@3 = private unnamed_addr constant [4 x i8] c"%s\0A\00", align 1

define void @__module_dr_fortran_cb_print_dr() {
.entry:
  call void (i8*, ...) @_lfortran_printf(i8* getelementptr inbounds ([4 x i8], [4 x i8]* @1, i32 0, i32 0), i8* getelementptr inbounds ([5 x i8], [5 x i8]* @0, i32 0, i32 0))
  ret void
}

define void @__module_dr_fortran_cb_print_dr_fortran(void ()* %title_or_name) {
.entry:
  call void %title_or_name()
  ret void
}

define void @__module_dr_fortran_cb_print_fortran() {
.entry:
  call void (i8*, ...) @_lfortran_printf(i8* getelementptr inbounds ([4 x i8], [4 x i8]* @3, i32 0, i32 0), i8* getelementptr inbounds ([8 x i8], [8 x i8]* @2, i32 0, i32 0))
  ret void
}

declare void @_lfortran_printf(i8*, ...)

declare void @__module_dr_fortran_cb_title_or_name()

define i32 @main() {
.entry:
  call void @__module_dr_fortran_cb_print_dr_fortran(void ()* @__module_dr_fortran_cb_print_dr)
  call void @__module_dr_fortran_cb_print_dr_fortran(void ()* @__module_dr_fortran_cb_print_fortran)
  ret i32 0
}

