; ModuleID = 'LFortran'
source_filename = "LFortran"

@x = global i32 0

define i32 @f() {
.entry:
  %f1 = alloca i32, align 4
  %f2 = alloca i32, align 4
  store i32 6, i32* @x, align 4
  %0 = load i32, i32* @x, align 4
  %1 = mul i32 2, %0
  store i32 %1, i32* %f1, align 4
  %2 = load i32, i32* @x, align 4
  %3 = add i32 %2, 1
  store i32 %3, i32* @x, align 4
  %4 = load i32, i32* @x, align 4
  %5 = mul i32 3, %4
  store i32 %5, i32* %f2, align 4
  %6 = load i32, i32* %f2, align 4
  ret i32 %6
}

