; ModuleID = 'LFortran'
source_filename = "LFortran"

@0 = private unnamed_addr constant [4 x i8] c"%f\0A\00", align 1

define i32 @main() {
.entry:
  %x = alloca float, align 4
  %0 = alloca float, align 4
  store float 1.500000e+00, float* %0, align 4
  %1 = alloca float, align 4
  %2 = load float, float* %0, align 4
  call void @_lfortran_tan(float %2, float* %1)
  %3 = load float, float* %1, align 4
  store float %3, float* %x, align 4
  %4 = load float, float* %x, align 4
  %5 = fpext float %4 to double
  call void (i8*, ...) @_lfortran_printf(i8* getelementptr inbounds ([4 x i8], [4 x i8]* @0, i32 0, i32 0), double %5)
  ret i32 0
}

declare void @_lfortran_sin(float, float*)

declare void @_lfortran_cos(float, float*)

declare void @_lfortran_tan(float, float*)

declare void @_lfortran_sinh(float, float*)

declare void @_lfortran_cosh(float, float*)

declare void @_lfortran_tanh(float, float*)

declare void @_lfortran_asin(float, float*)

declare void @_lfortran_acos(float, float*)

declare void @_lfortran_atan(float, float*)

declare void @_lfortran_asinh(float, float*)

declare void @_lfortran_acosh(float, float*)

declare void @_lfortran_atanh(float, float*)

declare void @_lfortran_printf(i8*, ...)

