{
    "basename": "llvm-nested_03-b26d2a0",
    "cmd": "lfortran --show-llvm {infile} -o {outfile}",
    "infile": "tests/../integration_tests/nested_03.f90",
    "infile_hash": "f5d522eba458efa50018d8ebcd4df6b9098d3fd59164c530fdc522e5",
    "outfile": null,
    "outfile_hash": null,
    "stdout": "llvm-nested_03-b26d2a0.stdout",
    "stdout_hash": "ca3769260a6d9c8a684406230301bdd94d046b509cf312ec6b2d1829",
    "stderr": null,
    "stderr_hash": null,
    "returncode": 0
}