{
    "basename": "llvm-string4-255ed42",
    "cmd": "lfortran --show-llvm {infile} -o {outfile}",
    "infile": "tests/../integration_tests/string4.f90",
    "infile_hash": "3c4608bd623d30f7a536cd6a115772ac66d2da351a32df9a027a8964",
    "outfile": null,
    "outfile_hash": null,
    "stdout": "llvm-string4-255ed42.stdout",
    "stdout_hash": "340f62298eb9735556d6d08ebb5b5b9b765c794bb9c710f85186ce52",
    "stderr": null,
    "stderr_hash": null,
    "returncode": 0
}