{
    "basename": "llvm-arrays_op_5-3bd2fd4",
    "cmd": "lfortran --show-llvm {infile} -o {outfile}",
    "infile": "tests/../integration_tests/arrays_op_5.f90",
    "infile_hash": "f3c014105f55ed7ec4a86da773076b204ada3cd5c8903ecbf25af3c4",
    "outfile": null,
    "outfile_hash": null,
    "stdout": "llvm-arrays_op_5-3bd2fd4.stdout",
    "stdout_hash": "91609d7a34a2c5125fc2150ee90e0c6c06593c6e7f413838fa756664",
    "stderr": null,
    "stderr_hash": null,
    "returncode": 0
}