; ModuleID = 'LFortran'
source_filename = "LFortran"

@x = global i32 0

define void @f() {
.entry:
  store i32 6, i32* @x, align 4
  %0 = load i32, i32* @x, align 4
  %1 = add i32 %0, 1
  store i32 %1, i32* @x, align 4
  ret void
}

