{
    "basename": "llvm-sin_03-aebf02d",
    "cmd": "lfortran --show-llvm {infile} -o {outfile}",
    "infile": "tests/../integration_tests/sin_03.f90",
    "infile_hash": "3c036b8aabdbfddc3c46fb69183c427f7991b105c361b785872acf59",
    "outfile": null,
    "outfile_hash": null,
    "stdout": "llvm-sin_03-aebf02d.stdout",
    "stdout_hash": "4ebb331013a3983170d587045e01b9d034731894cdecc6215f290fad",
    "stderr": null,
    "stderr_hash": null,
    "returncode": 0
}