{
    "basename": "llvm-const_real_dp-d1ee1fe",
    "cmd": "lfortran --show-llvm {infile} -o {outfile}",
    "infile": "tests/../integration_tests/const_real_dp.f90",
    "infile_hash": "636cd3c6b6c703b943b251bba6439b2675cd69fb82cd65a43513e971",
    "outfile": null,
    "outfile_hash": null,
    "stdout": "llvm-const_real_dp-d1ee1fe.stdout",
    "stdout_hash": "cf32a727a9059d3dd0aaaac227089c53de4a9789d043267063f198e9",
    "stderr": null,
    "stderr_hash": null,
    "returncode": 0
}