{
    "basename": "llvm-case_01-a236f4a",
    "cmd": "lfortran --show-llvm {infile} -o {outfile}",
    "infile": "tests/../integration_tests/case_01.f90",
    "infile_hash": "50b2ffd2a03a6c41a881d9c5cd2e1a0941707b9200f12c16f1bd48ea",
    "outfile": null,
    "outfile_hash": null,
    "stdout": "llvm-case_01-a236f4a.stdout",
    "stdout_hash": "c25e85acbe3027528b13bd99d69a359e09c9fbcac98b0a0160a951d2",
    "stderr": null,
    "stderr_hash": null,
    "returncode": 0
}