{
    "basename": "llvm-stop-26ecf1e",
    "cmd": "lfortran --show-llvm {infile} -o {outfile}",
    "infile": "tests/stop.f90",
    "infile_hash": "4992b783d9f3aeee0fc682e7600ed3b3e57f5d9e8ea4ef63ab0bbb4d",
    "outfile": null,
    "outfile_hash": null,
    "stdout": "llvm-stop-26ecf1e.stdout",
    "stdout_hash": "8b2ca4a5fa00047f2dea43957484aecc9ec2fe69bd8b1334abf4b1b5",
    "stderr": null,
    "stderr_hash": null,
    "returncode": 0
}