; ModuleID = 'LFortran'
source_filename = "LFortran"

define i32 @f() {
.entry:
  %f1 = alloca i32, align 4
  %f2 = alloca i32, align 4
  %f3 = alloca i32, align 4
  %f4 = alloca i32, align 4
  %f5 = alloca i32, align 4
  %f6 = alloca i32, align 4
  %f7 = alloca i32, align 4
  %f8 = alloca i32, align 4
  store i32 5, i32* %f1, align 4
  store i32 8, i32* %f2, align 4
  store i32 16, i32* %f3, align 4
  store i32 11, i32* %f4, align 4
  store i32 2, i32* %f5, align 4
  store i32 64, i32* %f6, align 4
  store i32 8, i32* %f7, align 4
  store i32 8, i32* %f8, align 4
  %0 = load i32, i32* %f8, align 4
  ret i32 %0
}

