{
    "basename": "llvm-arrays_op_6-df010ca",
    "cmd": "lfortran --show-llvm {infile} -o {outfile}",
    "infile": "tests/../integration_tests/arrays_op_6.f90",
    "infile_hash": "c714cdfef180f23c5c5708d96aabb474f944b24bd8c9c964a84a3ed1",
    "outfile": null,
    "outfile_hash": null,
    "stdout": "llvm-arrays_op_6-df010ca.stdout",
    "stdout_hash": "1ef04a37ad6023aff2b0923382426a2abb5ae905bfb9df9072c88ff1",
    "stderr": null,
    "stderr_hash": null,
    "returncode": 0
}