{
    "basename": "llvm-types_06-d3a3927",
    "cmd": "lfortran --show-llvm {infile} -o {outfile}",
    "infile": "tests/../integration_tests/types_06.f90",
    "infile_hash": "821a3f29390ed022c7e72bdf2e4f9bace059d335abe1d1b729ac6d22",
    "outfile": null,
    "outfile_hash": null,
    "stdout": "llvm-types_06-d3a3927.stdout",
    "stdout_hash": "423d50573d0a0e0c58407d7d50eed6f71bbaec77f1b8b6edd263346d",
    "stderr": null,
    "stderr_hash": null,
    "returncode": 0
}