{
    "basename": "llvm-class_03-51abcc6",
    "cmd": "lfortran --show-llvm {infile} -o {outfile}",
    "infile": "tests/../integration_tests/class_03.f90",
    "infile_hash": "cb7cff87d0874864a75325845434c59a6f1ba77970b3e24f433f0240",
    "outfile": null,
    "outfile_hash": null,
    "stdout": "llvm-class_03-51abcc6.stdout",
    "stdout_hash": "899642685c9093e3663e695182e6707707e473c25033fbb7bda972ef",
    "stderr": null,
    "stderr_hash": null,
    "returncode": 0
}