{
    "basename": "pass_global_stmts-global_scope6-278bd63",
    "cmd": "lfortran --pass=global_stmts --show-asr --no-color {infile} -o {outfile}",
    "infile": "tests/global_scope6.f90",
    "infile_hash": "3f2dfa122b78175565b7baa8f4d0417cfb0ed5bbe26bbb5f0f1f6f2e",
    "outfile": null,
    "outfile_hash": null,
    "stdout": "pass_global_stmts-global_scope6-278bd63.stdout",
    "stdout_hash": "ac9d346d293261888b63bc8b2d50e53f37613f0ad78f203a561855ac",
    "stderr": null,
    "stderr_hash": null,
    "returncode": 0
}